<?xml version="1.0" encoding="utf-8"?>
<!-- Generator: Adobe Illustrator 16.0.0, SVG Export Plug-In . SVG Version: 6.00 Build 0)  -->
<!DOCTYPE svg PUBLIC "-//W3C//DTD SVG 1.1//EN" "http://www.w3.org/Graphics/SVG/1.1/DTD/svg11.dtd">
<svg version="1.1" id="Layer_1" xmlns="http://www.w3.org/2000/svg" xmlns:xlink="http://www.w3.org/1999/xlink" x="0px" y="0px"
	 width="80.741px" height="80.741px" viewBox="0 0 80.741 80.741" enable-background="new 0 0 80.741 80.741" xml:space="preserve">
<polygon display="none" fill="#52AFA3" stroke="#FFFFFF" stroke-width="3" stroke-linejoin="round" stroke-miterlimit="10" points="
	2.44,78.301 2.44,2.44 78.301,2.44 "/>
<polygon display="none" fill="#365E99" stroke="#FFFFFF" stroke-width="3" stroke-linejoin="round" stroke-miterlimit="10" points="
	2.44,78.301 2.44,2.44 78.301,2.44 "/>
<polygon display="none" fill="#F5C85B" stroke="#FFFFFF" stroke-width="3" stroke-linejoin="round" stroke-miterlimit="10" points="
	2.44,78.301 2.44,2.44 78.301,2.44 "/>
<polygon fill="#E86223" stroke="#FFFFFF" stroke-width="3" stroke-linejoin="round" stroke-miterlimit="10" points="2.44,78.301 
	2.44,2.44 78.301,2.44 "/>
</svg>
