<?xml version="1.0" encoding="utf-8"?>
<!-- Generator: Adobe Illustrator 16.0.0, SVG Export Plug-In . SVG Version: 6.00 Build 0)  -->
<!DOCTYPE svg PUBLIC "-//W3C//DTD SVG 1.1//EN" "http://www.w3.org/Graphics/SVG/1.1/DTD/svg11.dtd">
<svg version="1.1" id="Layer_1" xmlns="http://www.w3.org/2000/svg" xmlns:xlink="http://www.w3.org/1999/xlink" x="0px" y="0px"
	 width="105px" height="105px" viewBox="0 0 105 105" enable-background="new 0 0 105 105" xml:space="preserve">
<g display="none">
	
		<line display="inline" fill="none" stroke="#FFFFFF" stroke-width="3" stroke-linecap="round" stroke-miterlimit="10" x1="44.005" y1="52.5" x2="60.995" y2="35.51"/>
	
		<line display="inline" fill="none" stroke="#FFFFFF" stroke-width="3" stroke-linecap="round" stroke-miterlimit="10" x1="44.005" y1="52.5" x2="60.995" y2="69.49"/>
	<circle display="inline" fill="none" stroke="#FFFFFF" stroke-width="3" stroke-miterlimit="10" cx="52.5" cy="52.5" r="42.475"/>
</g>
<g display="none">
	
		<line display="inline" fill="none" stroke="#FFFFFF" stroke-width="3" stroke-linecap="round" stroke-miterlimit="10" x1="60.995" y1="52.5" x2="44.005" y2="69.49"/>
	
		<line display="inline" fill="none" stroke="#FFFFFF" stroke-width="3" stroke-linecap="round" stroke-miterlimit="10" x1="60.995" y1="52.5" x2="44.005" y2="35.51"/>
	<circle display="inline" fill="none" stroke="#FFFFFF" stroke-width="3" stroke-miterlimit="10" cx="52.5" cy="52.5" r="42.475"/>
</g>
<g display="none">
	<path display="inline" fill="none" stroke="#FFFFFF" stroke-width="3" stroke-miterlimit="10" d="M90.969,84.468
		c0,5.101-4.132,9.233-9.234,9.233H23.265c-5.103,0-9.234-4.133-9.234-9.233V25.997c0-5.102,4.132-9.234,9.234-9.234h58.469
		c5.103,0,9.234,4.133,9.234,9.234V84.468z"/>
	
		<line display="inline" fill="none" stroke="#FFFFFF" stroke-width="3" stroke-miterlimit="10" x1="14.031" y1="31.021" x2="90.969" y2="31.021"/>
	
		<line display="inline" fill="none" stroke="#FFFFFF" stroke-width="3" stroke-linecap="round" stroke-miterlimit="10" x1="33.266" y1="11.299" x2="33.266" y2="21.922"/>
	
		<line display="inline" fill="none" stroke="#FFFFFF" stroke-width="4" stroke-linecap="round" stroke-miterlimit="10" x1="27.954" y1="47.566" x2="33.962" y2="47.566"/>
	
		<line display="inline" fill="none" stroke="#FFFFFF" stroke-width="4" stroke-linecap="round" stroke-miterlimit="10" x1="50.454" y1="47.566" x2="56.462" y2="47.566"/>
	
		<line display="inline" fill="none" stroke="#FFFFFF" stroke-width="4" stroke-linecap="round" stroke-miterlimit="10" x1="72.954" y1="47.566" x2="78.958" y2="47.566"/>
	
		<line display="inline" fill="none" stroke="#FFFFFF" stroke-width="4" stroke-linecap="round" stroke-miterlimit="10" x1="27.954" y1="63.833" x2="33.962" y2="63.833"/>
	
		<line display="inline" fill="none" stroke="#FFFFFF" stroke-width="4" stroke-linecap="round" stroke-miterlimit="10" x1="50.454" y1="63.833" x2="56.462" y2="63.833"/>
	
		<line display="inline" fill="none" stroke="#FFFFFF" stroke-width="4" stroke-linecap="round" stroke-miterlimit="10" x1="72.954" y1="63.784" x2="78.958" y2="63.784"/>
	
		<line display="inline" fill="none" stroke="#FFFFFF" stroke-width="4" stroke-linecap="round" stroke-miterlimit="10" x1="27.954" y1="80.105" x2="33.962" y2="80.105"/>
	
		<line display="inline" fill="none" stroke="#FFFFFF" stroke-width="4" stroke-linecap="round" stroke-miterlimit="10" x1="50.454" y1="80.105" x2="56.462" y2="80.105"/>
	
		<line display="inline" fill="none" stroke="#FFFFFF" stroke-width="3" stroke-linecap="round" stroke-miterlimit="10" x1="71.734" y1="11.299" x2="71.734" y2="21.922"/>
</g>
<g display="none">
	<circle display="inline" fill="none" stroke="#000000" stroke-width="3" stroke-miterlimit="10" cx="52.5" cy="52.5" r="42.475"/>
	
		<line display="inline" fill="none" stroke="#000000" stroke-width="3" stroke-linecap="round" stroke-miterlimit="10" x1="37.778" y1="37.323" x2="66.569" y2="66.114"/>
	
		<line display="inline" fill="none" stroke="#000000" stroke-width="3" stroke-linecap="round" stroke-miterlimit="10" x1="37.778" y1="66.114" x2="66.569" y2="37.323"/>
</g>
<g>
	<circle fill="none" stroke="#989898" stroke-width="3" stroke-miterlimit="10" cx="52.5" cy="52.5" r="42.475"/>
	<path fill="none" stroke="#989898" stroke-width="3" stroke-miterlimit="10" d="M69.051,35.935l-4.248,33.98
		c0,2.345-1.901,4.247-4.247,4.247H44.445c-2.345,0-4.248-1.902-4.248-4.247l-4.248-33.98"/>
	<path fill="none" stroke="#989898" stroke-width="3" stroke-miterlimit="10" d="M62.254,36.784v-5.097
		c0-2.346-1.901-4.248-4.247-4.248H46.993c-2.345,0-4.248,1.902-4.248,4.248v5.097"/>
	
		<line fill="none" stroke="#989898" stroke-width="3" stroke-linecap="round" stroke-miterlimit="10" x1="28.086" y1="36.784" x2="76.915" y2="36.784"/>
	
		<line fill="none" stroke="#989898" stroke-width="2" stroke-linecap="round" stroke-miterlimit="10" x1="51.895" y1="42.647" x2="51.895" y2="68.24"/>
	
		<line fill="none" stroke="#989898" stroke-width="2" stroke-linecap="round" stroke-miterlimit="10" x1="60.815" y1="42.647" x2="56.567" y2="68.24"/>
	
		<line fill="none" stroke="#989898" stroke-width="2" stroke-linecap="round" stroke-miterlimit="10" x1="43.825" y1="42.647" x2="47.223" y2="68.24"/>
</g>
<g display="none">
	<circle display="inline" fill="none" stroke="#989898" stroke-width="3" stroke-miterlimit="10" cx="52.5" cy="52.5" r="42.475"/>
	
		<rect x="49.868" y="28.672" transform="matrix(-0.7071 -0.7071 0.7071 -0.7071 53.1759 117.636)" display="inline" fill="#989898" width="2.167" height="38.265"/>
	
		<rect x="36.333" y="51.282" transform="matrix(0.7071 -0.7071 0.7071 0.7071 -20.7495 54.5451)" display="inline" fill="#989898" width="38.265" height="2.074"/>
	<path display="inline" fill="#989898" d="M63.711,33.508c1.662-1.661,4.354-1.661,6.016,0c1.662,1.662,1.661,4.354,0,6.015"/>
	<polygon display="inline" fill="#989898" points="36.656,60.567 35.174,68.062 42.67,66.581 	"/>
</g>
<g display="none">
	<circle display="inline" fill="none" stroke="#FFFFFF" stroke-width="3" stroke-miterlimit="10" cx="52.5" cy="52.5" r="42.475"/>
	
		<path display="inline" fill="none" stroke="#FFFFFF" stroke-width="3" stroke-linecap="round" stroke-linejoin="round" stroke-miterlimit="10" d="
		M53.065,37.662c0,0,10.672,0-0.807,0c-11.479,0-20.784,0-20.784,0s9.305,0,20.784,0C63.737,37.662,53.065,37.662,53.065,37.662z"/>
	
		<path display="inline" fill="none" stroke="#FFFFFF" stroke-width="3" stroke-linecap="round" stroke-linejoin="round" stroke-miterlimit="10" d="
		M52.259,37.662c-11.479,0-20.784,0-20.784,0S40.78,37.662,52.259,37.662c11.479,0,0.807,0,0.807,0"/>
	
		<path display="inline" fill="none" stroke="#FFFFFF" stroke-width="3" stroke-linecap="round" stroke-linejoin="round" stroke-miterlimit="10" d="
		M52.259,37.662c-11.479,0-20.784,0-20.784,0S40.78,37.662,52.259,37.662c11.479,0,0.807,0,0.807,0"/>
	
		<path display="inline" fill="none" stroke="#FFFFFF" stroke-width="3" stroke-linecap="round" stroke-linejoin="bevel" stroke-miterlimit="10" d="
		M71.873,37.662c-4.479,0-8.11,0-8.11,0S67.394,37.662,71.873,37.662c4.48,0,0.315,0,0.315,0"/>
	
		<path display="inline" fill="none" stroke="#FFFFFF" stroke-width="3" stroke-linecap="round" stroke-linejoin="round" stroke-miterlimit="10" d="
		M58.308,35.408c0,3.345,0,6.057,0,6.057S58.308,38.753,58.308,35.408c0-3.344,0-0.235,0-0.235"/>
	<g display="inline">
		<path fill="none" stroke="#FFFFFF" stroke-width="3" stroke-linecap="round" stroke-linejoin="round" stroke-miterlimit="10" d="
			M53.166,52.103c11.479,0,20.784,0,20.784,0S64.645,52.103,53.166,52.103c-11.478,0-0.807,0-0.807,0"/>
		<path fill="none" stroke="#FFFFFF" stroke-width="3" stroke-linecap="round" stroke-linejoin="bevel" stroke-miterlimit="10" d="
			M33.551,52.103c4.48,0,8.111,0,8.111,0S38.031,52.103,33.551,52.103c-4.48,0-0.315,0-0.315,0"/>
		<path fill="none" stroke="#FFFFFF" stroke-width="3" stroke-linecap="round" stroke-linejoin="round" stroke-miterlimit="10" d="
			M47.118,49.85c0,3.345,0,6.056,0,6.056S47.118,53.194,47.118,49.85s0-0.235,0-0.235"/>
	</g>
	
		<path display="inline" fill="none" stroke="#FFFFFF" stroke-width="3" stroke-linecap="round" stroke-linejoin="round" stroke-miterlimit="10" d="
		M52.259,66.896c-11.479,0-20.784,0-20.784,0S40.78,66.896,52.259,66.896c11.479,0,0.807,0,0.807,0"/>
	
		<path display="inline" fill="none" stroke="#FFFFFF" stroke-width="3" stroke-linecap="round" stroke-linejoin="bevel" stroke-miterlimit="10" d="
		M71.873,66.896c-4.479,0-8.11,0-8.11,0S67.394,66.896,71.873,66.896c4.48,0,0.315,0,0.315,0"/>
	
		<path display="inline" fill="none" stroke="#FFFFFF" stroke-width="3" stroke-linecap="round" stroke-linejoin="round" stroke-miterlimit="10" d="
		M58.308,64.642c0,3.346,0,6.058,0,6.058S58.308,67.987,58.308,64.642c0-3.344,0-0.234,0-0.234"/>
</g>
<g display="none">
	<circle display="inline" fill="none" stroke="#989898" stroke-width="3" stroke-miterlimit="10" cx="52.5" cy="52.5" r="42.475"/>
	
		<path display="inline" fill="none" stroke="#989898" stroke-width="3" stroke-linecap="round" stroke-linejoin="round" stroke-miterlimit="10" d="
		M75.187,40.778v31.865c0,0.85-0.696,1.546-1.555,1.546H32.559c-0.85,0-1.546-0.696-1.546-1.546V31.57
		c0-0.858,0.697-1.555,1.546-1.555h32.91"/>
	
		<line display="inline" fill="none" stroke="#989898" stroke-width="3" stroke-linecap="round" stroke-linejoin="round" stroke-miterlimit="10" x1="75.187" y1="40.778" x2="65.469" y2="30.015"/>
	
		<path display="inline" fill="none" stroke="#989898" stroke-width="2" stroke-linecap="round" stroke-linejoin="round" stroke-miterlimit="10" d="
		M40.381,73.964V57.37c0-0.937,0.761-1.698,1.699-1.698h22.539c0.938,0,1.699,0.762,1.699,1.698v16.594"/>
	
		<path display="inline" fill="none" stroke="#989898" stroke-width="2" stroke-linecap="round" stroke-linejoin="round" stroke-miterlimit="10" d="
		M61.821,31.036v10.646c0,0.938-0.762,1.699-1.699,1.699H46.078c-0.938,0-1.699-0.761-1.699-1.699V31.036"/>
	
		<line display="inline" fill="none" stroke="#989898" stroke-width="2" stroke-linecap="round" stroke-linejoin="round" stroke-miterlimit="10" x1="43.951" y1="60.401" x2="62.806" y2="60.401"/>
	
		<line display="inline" fill="none" stroke="#989898" stroke-width="2" stroke-linecap="round" stroke-linejoin="round" stroke-miterlimit="10" x1="55.926" y1="43.381" x2="55.926" y2="30.381"/>
	
		<line display="inline" fill="none" stroke="#989898" stroke-width="2" stroke-linecap="round" stroke-linejoin="round" stroke-miterlimit="10" x1="43.951" y1="69.426" x2="62.806" y2="69.426"/>
	
		<line display="inline" fill="none" stroke="#989898" stroke-width="2" stroke-linecap="round" stroke-linejoin="round" stroke-miterlimit="10" x1="43.951" y1="64.913" x2="62.806" y2="64.913"/>
</g>
</svg>
