<?xml version="1.0" encoding="utf-8"?>
<!-- Generator: Adobe Illustrator 16.0.0, SVG Export Plug-In . SVG Version: 6.00 Build 0)  -->
<!DOCTYPE svg PUBLIC "-//W3C//DTD SVG 1.1//EN" "http://www.w3.org/Graphics/SVG/1.1/DTD/svg11.dtd">
<svg version="1.1" id="Layer_1" xmlns="http://www.w3.org/2000/svg" xmlns:xlink="http://www.w3.org/1999/xlink" x="0px" y="0px"
	 width="50px" height="50px" viewBox="0 0 50 50" enable-background="new 0 0 50 50" xml:space="preserve">
<circle fill="none" stroke="#DE662B" stroke-width="1.5" stroke-miterlimit="10" cx="25" cy="25" r="23.191"/>
<polygon fill="#DE662B" points="22.587,22.084 22.587,12.432 27.748,12.432 27.748,22.419 37.869,22.419 37.869,27.781 
	27.748,27.781 27.748,37.568 22.587,37.568 22.587,27.715 12.131,27.715 12.131,22.086 "/>
</svg>
