<?xml version="1.0" encoding="utf-8"?>
<!-- Generator: Adobe Illustrator 16.0.0, SVG Export Plug-In . SVG Version: 6.00 Build 0)  -->
<!DOCTYPE svg PUBLIC "-//W3C//DTD SVG 1.1//EN" "http://www.w3.org/Graphics/SVG/1.1/DTD/svg11.dtd">
<svg version="1.1" id="Layer_1" xmlns="http://www.w3.org/2000/svg" xmlns:xlink="http://www.w3.org/1999/xlink" x="0px" y="0px"
	 width="50px" height="50px" viewBox="0 0 50 50" enable-background="new 0 0 50 50" xml:space="preserve">
<g>
	<path fill="none" stroke="#FFFFFF" stroke-width="2" stroke-miterlimit="10" d="M40.905,41.654c0,2.74-2.221,4.957-4.957,4.957
		H14.052c-2.739,0-4.958-2.217-4.958-4.957V25.593c0-2.739,2.219-4.958,4.958-4.958h21.896c2.736,0,4.957,2.22,4.957,4.958V41.654z"
		/>
	<circle fill="#FFFFFF" cx="25" cy="33.04" r="3.596"/>
	<path fill="#FFFFFF" d="M26.885,38.065c0,1.039-0.844,1.885-1.885,1.885l0,0c-1.041,0-1.885-0.846-1.885-1.885v-2.401
		c0-1.043,0.844-1.885,1.885-1.885l0,0c1.041,0,1.885,0.842,1.885,1.885V38.065z"/>
	<path fill="none" stroke="#FFFFFF" stroke-width="2" stroke-miterlimit="10" d="M15.911,20.13v-7.138
		c0-5.304,4.301-9.605,9.605-9.605l0,0c5.305,0,9.605,4.301,9.605,9.605v7.138"/>
</g>
</svg>
