<?xml version="1.0" encoding="UTF-8" standalone="no"?>
<svg width="290px" height="48px" viewBox="0 0 290 48" version="1.1" xmlns="http://www.w3.org/2000/svg" xmlns:xlink="http://www.w3.org/1999/xlink">
    <!-- Generator: Sketch 40.1 (33804) - http://www.bohemiancoding.com/sketch -->
    <title>Slice 1</title>
    <desc>Created with Sketch.</desc>
    <defs></defs>
    <g id="Page-1" stroke="none" stroke-width="1" fill="none" fill-rule="evenodd">
        <g id="logo" transform="translate(1.000000, 0.000000)">
            <g id="Page-1">
                <g id="Login">
                    <g id="logo">
                        <g id="Group-15">
                            <path d="M24.9970264,47.011275 C22.9871623,42.6054 20.5572542,37.42515 19.430416,32.5284 C18.3931873,27.89715 20.1065936,24.4194 21.390995,21.49665 C22.7791939,18.35715 25.2173162,16.085775 26.2381165,12.8064 C27.1039673,10.026525 27.5744166,4.3314 27.0277994,0.374775 C29.7063735,2.359275 32.3733732,6.56227498 33.716394,10.54965 C36.5670929,18.748275 37.7234275,26.14665 36.5446905,34.061775 C35.7845042,39.059775 34.0464552,41.972025 31.1136144,44.060025 C29.6611955,45.09465 27.141678,46.3869 25.6179448,46.935525" id="Fill-1" fill="#FFE600"></path>
                            <path d="M25.5854987,46.9395 C22.4921078,44.800125 18.7867592,42.217125 16.130214,39.236625 C13.6398195,36.400875 13.5319149,32.915625 13.3321606,30.06675 C13.1245655,27.004125 13.6756633,24.1035 13.4676948,21.039 C13.2328435,18.260625 11.1990836,14.085 9.30981885,11.476125 C11.9585233,11.47425 15.4428353,13.105125 17.9059735,15.300375 C23.0368582,19.76325 26.6626784,24.56775 28.8323459,31.021875 C30.1914217,35.106 29.5152442,38.10075 28.4660675,41.506125 C27.9657483,43.12725 26.9322533,45.1545 25.8158696,46.729875" id="Fill-4" fill="#FDB813"></path>
                            <path d="M25.5729161,46.9464375 C22.7218439,47.4091875 19.3017519,47.9469375 16.3539761,47.4594375 C13.5719777,46.9749375 11.9829045,44.3585625 10.6133742,42.2964375 C9.14564698,40.0749375 8.21968319,37.4600625 6.75008909,35.2415625 C5.39176002,33.2581875 2.3077033,31.4266875 -0.000112011745,30.7040625 C1.63712633,28.8924375 4.50761398,27.7723125 6.99016763,27.7828125 C12.1165718,27.7261875 16.4596405,28.9561875 20.6242372,32.4534375 C23.251286,34.6783125 24.6514328,37.6644375 25.1356969,41.0701875 C25.3649476,42.6733125 25.7017296,44.6379375 25.622948,46.6299375" id="Fill-6" fill="#E59539"></path>
                        </g>
                        <path d="M89.200917,39.4739879 C88.0017606,39.4739879 86.8312138,39.233503 85.7246737,38.7544727 C84.6215276,38.2749576 83.6430009,37.5985939 82.8128532,36.7428364 C81.9865847,35.8953212 81.3266366,34.903806 80.8494957,33.7920485 C80.3704149,32.6730182 80.12942,31.4773818 80.12942,30.2313212 C80.12942,28.9833212 80.3776886,27.7842909 80.8674371,26.6667152 C81.3528213,25.5588364 82.0331351,24.5712 82.8884972,23.7251394 C83.7453147,22.8829576 84.7422672,22.2211394 85.8536567,21.7571394 C88.0706166,20.8272 90.6207019,20.8272 92.782383,21.7595636 C93.8564349,22.2245333 94.8223547,22.8878061 95.6554119,23.7304727 C96.4918629,24.5833212 97.1425981,25.5753212 97.5935543,26.6841697 C98.0445106,27.7959272 98.273383,28.9886545 98.273383,30.2313212 C98.273383,31.4827151 98.0333578,32.6802909 97.5528228,33.7920485 C97.0790759,34.900897 96.4186433,35.8948363 95.59092,36.7428364 C94.7578629,37.6000485 93.7788511,38.2749576 92.6786151,38.753503 C91.5720744,39.233503 90.4020127,39.4739879 89.200917,39.4739879 M89.1669741,18.9178666 C87.5847472,18.9178666 86.0776804,19.2116848 84.690383,19.793503 C83.3016315,20.3762909 82.0646537,21.201503 81.0138763,22.2487758 C79.9689185,23.2921697 79.1411953,24.5212606 78.5554371,25.8962909 C77.973558,27.2611394 77.6797086,28.7316848 77.6797086,30.2667152 C77.6797086,31.8012606 77.973558,33.2790788 78.5564067,34.6545939 C79.1407101,36.0373818 79.9669787,37.2616242 81.0114519,38.2943515 C82.0583496,39.3290182 83.2962976,40.1518061 84.6913532,40.737503 C87.4756448,41.9016243 90.8549082,41.9016243 93.6445343,40.7365334 C95.0371649,40.1518061 96.2755981,39.3290182 97.3224957,38.2943515 C98.3659987,37.2616242 99.1922672,36.0373818 99.7775409,34.6545939 C100.358935,33.2737454 100.654239,31.7964121 100.654239,30.2667152 C100.654239,28.7360485 100.358935,27.2659878 99.7775409,25.8958061 C99.1922672,24.5212606 98.3655142,23.2921697 97.3191011,22.2487758 C96.2712338,21.201503 95.0347405,20.3762909 93.6445343,19.793503 C92.2552976,19.2116848 90.7492004,18.9178666 89.1669741,18.9178666" id="Fill-9" fill="#5B5E5B"></path>
                        <polygon id="Fill-11" fill="#5B5E5B" points="111.067792 40.8603636 114.114899 40.8603636 122.272845 19.9464243 119.989454 19.9464243 112.680082 39.0562424 105.660679 19.9464243 103.298249 19.9464243"></polygon>
                        <path d="M136.842033,33.4328242 L127.570273,33.4328242 L132.250521,21.7678546 L136.842033,33.4328242 L136.842033,33.4328242 Z M139.808162,40.8602182 L142.132285,40.8602182 L133.87542,19.9467636 L130.848678,19.9467636 L122.334815,40.8602182 L124.610933,40.8602182 L126.838075,35.2655515 L137.576171,35.2655515 L139.808162,40.8602182 L139.808162,40.8602182 Z" id="Fill-13" fill="#5B5E5B"></path>
                        <path d="M153.867479,38.8892606 L149.771535,38.8892606 L149.771535,21.9142303 L153.627454,21.9142303 C156.825365,21.9142303 159.352176,22.6356848 161.142909,24.0587152 C162.971464,25.5142303 163.899561,27.5675636 163.899561,30.1629576 C163.899561,32.9193212 163.064565,35.0885333 161.416392,36.6119273 C159.783736,38.1227152 157.241894,38.8892606 153.867479,38.8892606 M147.631189,19.9467152 L147.631189,40.8601697 L154.793152,40.8601697 C158.544333,40.8601697 161.44985,39.8914424 163.435028,37.9782303 C165.416811,36.0761697 166.420068,33.4938667 166.420068,30.3001697 C166.420068,29.0099879 166.188771,27.7314424 165.737815,26.5018666 C165.289283,25.2834424 164.592967,24.1639273 163.671174,23.1801697 C162.752774,22.1978667 161.574954,21.4065939 160.166322,20.8267151 C158.753325,20.2424728 157.095939,19.9467152 155.240229,19.9467152" id="Fill-15" fill="#5B5E5B"></path>
                        <path d="M181.613273,39.4739879 C180.412178,39.4739879 179.242601,39.233503 178.13703,38.7544727 C177.03146,38.2744727 176.051963,37.5976242 175.2223,36.7428364 C174.395062,35.8948363 173.734629,34.900897 173.259428,33.7886545 C172.780347,32.6759273 172.538867,31.4773818 172.538867,30.2313212 C172.538867,28.9833212 172.785196,27.7842909 173.277369,26.6667152 C173.765178,25.5588364 174.447431,24.5687757 175.299884,23.7251394 C176.156701,22.8829576 177.15317,22.2211394 178.265044,21.7571394 C180.483943,20.8272 183.032574,20.8272 185.192315,21.7595636 C186.266852,22.225503 187.234226,22.8878061 188.065344,23.7304727 C188.899856,24.5779878 189.551075,25.5709576 190.002517,26.6817455 C190.455412,27.7910788 190.684285,28.9876849 190.684285,30.2313212 C190.684285,31.4773818 190.44329,32.6730182 189.966634,33.7886545 C189.489008,34.903806 188.826151,35.8953212 187.999883,36.7447758 C187.17119,37.5985939 186.192662,38.2749576 185.090972,38.753503 C183.982492,39.233503 182.813884,39.4739879 181.613273,39.4739879 M181.5803,18.9178666 C179.996619,18.9178666 178.491006,19.2116848 177.10177,19.793503 C175.709139,20.3762909 174.471676,21.201503 173.423324,22.2487758 C172.376911,23.300897 171.550158,24.5261091 170.969733,25.8958061 C170.386399,27.2640485 170.089641,28.7355636 170.089641,30.2667152 C170.089641,31.7998061 170.386399,33.2761697 170.969733,34.6545939 C171.550158,36.0320485 172.373032,37.2562909 173.421869,38.2943515 C174.467312,39.3285333 175.704775,40.1513212 177.10274,40.737503 C179.886547,41.8987151 183.259992,41.9016243 186.056891,40.7365334 C187.450006,40.1518061 188.686985,39.3290182 189.733883,38.2943515 C190.779325,37.2616242 191.605594,36.0373818 192.185049,34.6550788 L192.188443,34.6545939 C192.769837,33.2761697 193.06805,31.7998061 193.06805,30.2667152 C193.06805,28.7355636 192.769837,27.2640485 192.188443,25.8962909 C191.602684,24.5212606 190.778356,23.2955636 189.731458,22.2487758 C188.68359,21.201503 187.444673,20.3762909 186.056891,19.793503 C184.66717,19.2116848 183.160102,18.9178666 181.5803,18.9178666" id="Fill-17" fill="#5B5E5B"></path>
                        <polygon id="Fill-19" fill="#5B5E5B" points="227.597295 40.8570667 229.732792 40.8570667 229.732792 21.7428848 236.77353 21.7428848 236.77353 19.9465212 220.836828 19.9465212 220.836828 21.7428848 227.597295 21.7428848"></polygon>
                        <polygon id="Fill-21" fill="#5B5E5B" points="241.806203 40.8601212 243.945094 40.8601212 243.945094 19.9461818 241.806203 19.9461818"></polygon>
                        <path d="M70.8313302,40.8603636 L72.7975966,40.8603636 L72.7975966,30.5403636 C72.7975966,26.7895758 71.8316774,23.8809697 69.9202041,21.899394 C68.0164897,19.9192727 65.4314912,18.9175758 62.2389139,18.9175758 C60.9422931,18.9175758 59.6660381,19.1459394 58.4402126,19.5973334 C57.2192361,20.0487272 56.102028,20.744 55.1157428,21.6642424 C54.1377008,22.5796363 53.3434358,23.7573333 52.7615565,25.1706667 C52.1782226,26.5854546 51.8819492,28.2431515 51.8819492,30.0938182 L51.8819492,40.8603636 L53.8516102,40.8603636 L53.8516102,31.7049697 C53.8516102,28.5073939 54.5745951,25.9789091 55.9948653,24.193697 C57.4563519,22.3614546 59.5094156,21.4339394 62.1012025,21.4339394 C64.858825,21.4339394 67.0311737,22.2683636 68.5527879,23.9173334 C70.0661588,25.550303 70.8313302,28.091394 70.8313302,31.4669091 L70.8313302,40.8603636 L70.8313302,40.8603636 Z" id="Fill-23" fill="#5B5E5B"></path>
                        <path d="M215.671778,40.8603636 L217.635135,40.8603636 L217.635135,30.5403636 C217.635135,26.7895758 216.669216,23.8809697 214.757258,21.899394 C212.853543,19.9192727 210.26806,18.9175758 207.079362,18.9175758 C205.780317,18.9175758 204.500182,19.1459394 203.276781,19.5973334 C202.059199,20.049697 200.941021,20.744 199.957645,21.6642424 C198.973785,22.5796363 198.182429,23.7573333 197.601035,25.1677576 C197.020125,26.5801212 196.721912,28.2373334 196.721912,30.0938182 L196.721912,40.8603636 L198.691088,40.8603636 L198.691088,31.7049697 C198.691088,28.5073939 199.412619,25.9789091 200.836768,24.193697 C202.29486,22.3614546 204.349378,21.4339394 206.941165,21.4339394 C209.697818,21.4339394 211.867258,22.2683636 213.390811,23.9173334 C214.901758,25.5522424 215.671778,28.091394 215.671778,31.4669091 L215.671778,40.8603636 L215.671778,40.8603636 Z" id="Fill-24" fill="#5B5E5B"></path>
                        <path d="M260.768821,20.3869091 C257.01764,20.3869091 254.108729,21.3566061 252.123551,23.2664242 C250.145163,25.1684848 249.141906,27.7517576 249.141906,30.9469091 C249.141906,32.2424242 249.367869,33.5209697 249.823674,34.7461818 C250.272691,35.9650909 250.969976,37.0841212 251.88789,38.0669091 C252.808229,39.0511515 253.98605,39.8409697 255.393712,40.4203637 C256.807194,41.004606 258.463125,41.3003636 260.319805,41.3003636 L268.572792,41.3003636 L268.572792,39.3313939 L261.934035,39.3313939 C258.733214,39.3313939 256.203979,38.6099394 254.41955,37.187394 C252.588085,35.7299394 251.661442,33.6766061 251.661442,31.0841212 C251.661442,28.3277576 252.496924,26.1561212 254.140248,24.6312727 C255.777268,23.1214546 258.318625,22.3539394 261.69207,22.3539394 L268.572792,22.3539394 L268.572792,20.3869091 L260.768821,20.3869091 L260.768821,20.3869091 Z" id="Fill-25" fill="#5B5E5B"></path>
                        <path d="M273.636644,39.7912242 C275.79978,40.9655273 278.213608,41.5599515 280.821397,41.5599515 C283.162006,41.5599515 285.078813,41.0372848 286.519934,40.0035879 C287.91208,39.0038303 288.588515,37.7466182 288.588515,36.1606788 C288.588515,33.9308606 286.928704,32.0394667 283.656604,30.5359515 L280.491665,29.0959515 C278.99963,28.4215273 277.931397,27.7868606 277.237021,27.1536485 C276.462637,26.4520727 276.067929,25.6637091 276.067929,24.8142546 C276.067929,24.1301333 276.351595,23.1570424 277.69913,22.4128 C278.661656,21.8809212 279.888451,21.6108606 281.339754,21.6108606 C283.486889,21.6108606 285.539952,22.2048 287.449971,23.3742546 L287.449971,21.3252848 C285.618506,20.4457697 283.591627,20.0001939 281.423642,20.0001939 C279.036967,20.0001939 277.083308,20.5146182 275.615518,21.5294061 C274.198642,22.5078303 273.511055,23.7378909 273.511055,25.2869818 C273.511055,26.2998303 273.867455,27.1754667 274.599169,27.9589818 C275.374523,28.7938909 276.727877,29.6680727 278.625773,30.5592243 L281.779558,32.0326788 C284.585185,33.3757091 285.950662,34.8254061 285.950662,36.4593455 C285.950662,37.5187394 285.415818,38.3987394 284.366981,39.0760727 C283.404455,39.6966788 282.197056,40.0103757 280.78212,40.0103757 C278.137964,40.0103757 275.741592,39.1672242 273.636644,37.5008 L273.636644,39.7912242 L273.636644,39.7912242 Z" id="Fill-26" fill="#5B5E5B"></path>
                    </g>
                </g>
            </g>
        </g>
    </g>
</svg>