<?xml version="1.0" encoding="utf-8"?>
<!-- Generator: Adobe Illustrator 16.0.0, SVG Export Plug-In . SVG Version: 6.00 Build 0)  -->
<!DOCTYPE svg PUBLIC "-//W3C//DTD SVG 1.1//EN" "http://www.w3.org/Graphics/SVG/1.1/DTD/svg11.dtd">
<svg version="1.1" id="Layer_1" xmlns="http://www.w3.org/2000/svg" xmlns:xlink="http://www.w3.org/1999/xlink" x="0px" y="0px"
	 width="100px" height="100px" viewBox="0 0 100 100" enable-background="new 0 0 100 100" xml:space="preserve">
<g>
	<path fill="none" stroke="#E86223" stroke-width="2.2" stroke-linecap="round" d="M48.55,81.609H21.14c-3.32,0-6-2.689-6-6V27.6
		c0-3.31,2.68-6,6-6h53.799c3.311,0,6,2.69,6,6v15.82"/>
	<path fill="#E86223" d="M48.484,80.453c0.638,0,1.156,0.518,1.156,1.156s-0.518,1.156-1.156,1.156"/>
	<rect x="30.628" y="15.918" fill="none" stroke="#E86223" stroke-width="1.5" width="0.737" height="12.885"/>
	<rect x="65.629" y="15.918" fill="none" stroke="#E86223" stroke-width="1.5" width="0.736" height="12.885"/>
	
		<rect x="33.889" y="47.113" transform="matrix(0.0093 1 -1 0.0093 88.2202 19.5234)" fill="none" stroke="#E86223" stroke-width="1.5" width="0.736" height="14.341"/>
	
		<rect x="33.889" y="61.782" transform="matrix(0.0093 1 -1 0.0093 102.8895 34.0572)" fill="none" stroke="#E86223" stroke-width="1.5" width="0.736" height="14.341"/>
	<circle fill="none" stroke="#E86223" stroke-width="2" stroke-miterlimit="10" cx="70.036" cy="65.846" r="21.557"/>
	
		<line fill="none" stroke="#E86223" stroke-width="2" stroke-linecap="round" stroke-miterlimit="10" x1="69.036" y1="69.558" x2="69.036" y2="58.336"/>
	
		<line fill="none" stroke="#E86223" stroke-width="2" stroke-linecap="round" stroke-miterlimit="10" x1="69.036" y1="69.558" x2="79.939" y2="69.558"/>
</g>
</svg>
