<?xml version="1.0" encoding="utf-8"?>
<!-- Generator: Adobe Illustrator 13.0.0, SVG Export Plug-In . SVG Version: 6.00 Build 14948)  -->
<!DOCTYPE svg PUBLIC "-//W3C//DTD SVG 1.1//EN" "http://www.w3.org/Graphics/SVG/1.1/DTD/svg11.dtd">
<svg version="1.1" id="Layer_1" xmlns="http://www.w3.org/2000/svg" xmlns:xlink="http://www.w3.org/1999/xlink" x="0px" y="0px"
	 width="100px" height="100px" viewBox="0 0 100 100" enable-background="new 0 0 100 100" xml:space="preserve">
<g>
	<g>
		<path fill="none" stroke="#EA6225" stroke-width="2.3" stroke-miterlimit="10" d="M80.309,86.596c0,1.65-1.35,3-3,3H22.691
			c-1.65,0-3-1.35-3-3V13.405c0-1.65,1.35-3,3-3h54.618c1.649,0,3,1.35,3,3V86.596L80.309,86.596z"/>
	</g>
	<g>
		
			<line fill="none" stroke="#EA6225" stroke-width="2.3" stroke-linecap="round" stroke-miterlimit="10" x1="28.597" y1="25.87" x2="50.274" y2="25.87"/>
		
			<line fill="none" stroke="#EA6225" stroke-width="2.3" stroke-linecap="round" stroke-miterlimit="10" x1="61.654" y1="28.565" x2="71.402" y2="18.818"/>
		
			<line fill="none" stroke="#EA6225" stroke-width="2.3" stroke-linecap="round" stroke-miterlimit="10" x1="56.781" y1="23.691" x2="61.654" y2="28.565"/>
	</g>
	<g>
		
			<line fill="none" stroke="#EA6225" stroke-width="2.3" stroke-linecap="round" stroke-miterlimit="10" x1="28.597" y1="42.87" x2="50.274" y2="42.87"/>
		
			<line fill="none" stroke="#EA6225" stroke-width="2.3" stroke-linecap="round" stroke-miterlimit="10" x1="61.654" y1="45.565" x2="71.402" y2="35.818"/>
		
			<line fill="none" stroke="#EA6225" stroke-width="2.3" stroke-linecap="round" stroke-miterlimit="10" x1="56.781" y1="40.691" x2="61.654" y2="45.565"/>
	</g>
	<g>
		
			<line fill="none" stroke="#EA6225" stroke-width="2.3" stroke-linecap="round" stroke-miterlimit="10" x1="28.597" y1="59.869" x2="50.274" y2="59.869"/>
		
			<line fill="none" stroke="#EA6225" stroke-width="2.3" stroke-linecap="round" stroke-miterlimit="10" x1="61.654" y1="62.564" x2="71.402" y2="52.818"/>
		
			<line fill="none" stroke="#EA6225" stroke-width="2.3" stroke-linecap="round" stroke-miterlimit="10" x1="56.781" y1="57.691" x2="61.654" y2="62.564"/>
	</g>
	<g>
		
			<line fill="none" stroke="#EA6225" stroke-width="2.3" stroke-linecap="round" stroke-miterlimit="10" x1="28.597" y1="76.869" x2="50.274" y2="76.869"/>
		
			<line fill="none" stroke="#EA6225" stroke-width="2.3" stroke-linecap="round" stroke-miterlimit="10" x1="61.654" y1="79.564" x2="71.402" y2="69.818"/>
		
			<line fill="none" stroke="#EA6225" stroke-width="2.3" stroke-linecap="round" stroke-miterlimit="10" x1="56.781" y1="74.691" x2="61.654" y2="79.564"/>
	</g>
</g>
</svg>
