<?xml version="1.0" encoding="utf-8"?>
<!-- Generator: Adobe Illustrator 16.0.0, SVG Export Plug-In . SVG Version: 6.00 Build 0)  -->
<!DOCTYPE svg PUBLIC "-//W3C//DTD SVG 1.1//EN" "http://www.w3.org/Graphics/SVG/1.1/DTD/svg11.dtd">
<svg version="1.1" id="Layer_1" xmlns="http://www.w3.org/2000/svg" xmlns:xlink="http://www.w3.org/1999/xlink" x="0px" y="0px"
	 width="100px" height="100px" viewBox="0 0 100 100" enable-background="new 0 0 100 100" xml:space="preserve">
<g>
	<path id="Fill-1" fill="#FEFEFE" d="M44.176,16.423c-10.936,0-19.833,8.898-19.833,19.838c0,10.937,8.896,19.836,19.833,19.836
		c10.937,0,19.832-8.9,19.832-19.836C64.008,25.321,55.112,16.423,44.176,16.423 M44.176,59.194
		c-12.646,0-22.938-10.288-22.938-22.933c0-12.647,10.291-22.935,22.938-22.935c12.648,0,22.939,10.288,22.939,22.935
		C67.115,48.907,56.824,59.194,44.176,59.194"/>
	<path id="Fill-3" fill="#FEFEFE" d="M19.419,43.4h11.532l-2.619-7.293c-0.194-0.542-0.05-1.147,0.366-1.545
		c0.337-0.322,8.202-7.986,3.983-16.318c-2.116-4.181-6.037-5.1-8.186-5.274c-4.028-0.333-7.782,1.299-9.077,3.062
		c-0.722,0.985-1.268,1.987-1.391,2.555c-0.057,0.265-0.071,1.029-0.083,1.643c-0.031,1.578-0.071,2.586-0.402,3.281
		c-0.261,0.55-1.378,2.44-2.223,3.851c0.18,0.003,0.357,0.036,0.518,0.102c0.375,0.155,1.005,0.589,1.005,1.754
		c0,0.432-0.089,3.658-0.138,5.363c0.915,0.063,2.325,0.131,3.595,0.178c0.312-0.042,0.641,0.004,0.937,0.138
		c0.376,0.168,0.875,0.55,1.103,1.409C18.487,36.853,19.055,40.805,19.419,43.4 M33.026,46.312H18.149
		c-0.728,0-1.345-0.535-1.446-1.255c-0.399-2.875-0.861-6.065-1.079-7.409c-4.584-0.171-4.757-0.312-5.153-0.627
		c-0.568-0.453-0.739-1.026-0.714-1.495c0.008-0.307,0.101-3.495,0.145-5.235c-1.179-0.055-1.422-0.25-1.661-0.44
		c-0.674-0.537-0.832-1.492-0.389-2.375c1.08-1.794,2.801-4.679,3.054-5.211c0.086-0.271,0.107-1.41,0.12-2.089
		c0.016-0.891,0.031-1.663,0.15-2.208c0.292-1.334,1.307-2.862,1.886-3.653c2.083-2.843,6.994-4.63,11.671-4.247
		c4.761,0.389,8.508,2.826,10.553,6.864c4.443,8.779-1.754,16.688-3.903,19.042l3.015,8.39c0.159,0.446,0.092,0.943-0.182,1.33
		C33.945,46.081,33.5,46.312,33.026,46.312"/>
	<path id="Fill-5" fill="#FCFDFD" d="M20.305,11.538c-1.088,0.188-2.614,0.789-2.212,1.815c0.303,0.773-3.243,0.63-1.894,4.086
		c2.874,7.353,10.057,3.933,11.863,6.743c2.239,3.48-1.232,8.103,0.457,12.139c2.059,4.926,4.69,5.544,4.69,5.544l-3.027-8.424
		l3.986-5.868l1.18-5.174l-2.521-7.316l-6.345-3.652L20.305,11.538z"/>
	<path id="Fill-7" opacity="0.22" fill="#FEFEFE" enable-background="new    " d="M26.51,24.086
		c5.016-8.662,17.417-10.541,17.465-9.955l11.532,3.527c14.136,10.615,16.91,37.619-10.041,41.267h2.457
		c0.083-1.426-4.129-0.676-4.579-1.022l-10.338-2.83C22.936,46.569,22.504,36.623,22.8,34.468L26.51,24.086z"/>
	<polygon id="Fill-9" fill="#FEFEFE" points="68.201,54.686 64.344,59.226 58.066,53.916 61.926,49.376 	"/>
	<polygon id="Fill-11" opacity="0.3" enable-background="new    " points="93.784,80.406 90.974,83.607 65.277,61.166 
		68.088,57.965 	"/>
	<path id="Fill-13" fill="#FEFEFE" d="M95.254,76.354L95.254,76.354L95.254,76.354z M66.085,60.547l24.533,21.157l4.132-4.769
		L70.218,55.778L66.085,60.547z M90.659,84.976c-0.619,0-1.24-0.213-1.745-0.648l-25.185-21.72c-0.54-0.465-0.866-1.113-0.918-1.823
		c-0.052-0.711,0.178-1.396,0.643-1.935l4.88-5.633c0.863-0.996,2.377-1.106,3.375-0.244l25.655,22.125
		c0.471,0.405,0.755,0.97,0.799,1.589c0.046,0.621-0.154,1.221-0.561,1.692l-4.919,5.677C92.156,84.663,91.408,84.976,90.659,84.976
		L90.659,84.976z"/>
	<path id="Fill-15" opacity="0.2" enable-background="new    " d="M4.783,53.252c0-1.129,1.099-1.924,2.176-1.58
		c2.249,0.722,5.754,2.462,8.111,6.607c3.719,6.538,2.624,15.807,2.624,15.807s-0.74,5.038,1.491,7.456
		c1.337,1.452,2.45,4.114,3.126,6.01c0.383,1.073-0.4,2.202-1.541,2.219L6.469,89.98c-0.927,0.016-1.686-0.732-1.686-1.658V53.252z"
		/>
	<path id="Fill-17" fill="#FEFEFE" d="M58.822,39.507c-0.841,0-1.526-0.676-1.535-1.516c-0.035-4.144-1.687-8.025-4.649-10.927
		c-2.961-2.904-6.846-4.477-11.031-4.446h-0.014c-0.84,0-1.525-0.676-1.533-1.518c-0.008-0.844,0.673-1.535,1.519-1.543
		c4.963-0.047,9.663,1.847,13.21,5.322c3.546,3.477,5.521,8.124,5.567,13.084c0.006,0.844-0.673,1.535-1.521,1.543H58.822z"/>
	<g id="Group-21" transform="translate(0.000000, 36.537348)">
		<g id="Clip-20">
		</g>
		<defs>
			<filter id="Adobe_OpacityMaskFilter" filterUnits="userSpaceOnUse" x="1.828" y="7.342" width="47.684" height="46.263">
				<feColorMatrix  type="matrix" values="1 0 0 0 0  0 1 0 0 0  0 0 1 0 0  0 0 0 1 0"/>
			</filter>
		</defs>
		<mask maskUnits="userSpaceOnUse" x="1.828" y="7.342" width="47.684" height="46.263" id="mask-2_2_">
			<g filter="url(#Adobe_OpacityMaskFilter)">
			</g>
		</mask>
		<path id="Fill-19" mask="url(#mask-2_2_)" fill="#FEFEFE" d="M47.96,53.605c-0.856,0-1.552-0.694-1.552-1.549V17.722
			c0-4.221-3.535-7.284-8.407-7.284H13.338c-4.796,0-8.406,4.111-8.406,6.777v34.841c0,0.854-0.694,1.549-1.552,1.549
			c-0.856,0-1.552-0.694-1.552-1.549V17.216c0-4.471,5.134-9.874,11.51-9.874h24.664c6.563,0,11.51,4.462,11.51,10.38v34.334
			C49.512,52.911,48.816,53.605,47.96,53.605"/>
	</g>
</g>
</svg>
