<?xml version="1.0" encoding="utf-8"?>
<!-- Generator: Adobe Illustrator 13.0.0, SVG Export Plug-In . SVG Version: 6.00 Build 14948)  -->
<!DOCTYPE svg PUBLIC "-//W3C//DTD SVG 1.1//EN" "http://www.w3.org/Graphics/SVG/1.1/DTD/svg11.dtd">
<svg version="1.1" id="Layer_1" xmlns="http://www.w3.org/2000/svg" xmlns:xlink="http://www.w3.org/1999/xlink" x="0px" y="0px"
	 width="50px" height="50px" viewBox="0 0 50 50" enable-background="new 0 0 50 50" xml:space="preserve">
<circle fill="#C3E0DF" cx="24.5" cy="24.5" r="22.543"/>
<path fill="#1C2F47" d="M34.017,30.179c0.92,0.921,1.026,2.307,0.237,3.096l0,0c-0.79,0.789-2.175,0.684-3.096-0.237L14.692,16.571
	c-0.921-0.92-1.027-2.306-0.237-3.095l0,0c0.79-0.79,2.175-0.684,3.095,0.237L34.017,30.179z"/>
<path fill="#1C2F47" d="M17.55,33.037c-0.921,0.92-2.307,1.026-3.096,0.237l0,0c-0.789-0.79-0.684-2.175,0.237-3.096l16.466-16.466
	c0.92-0.921,2.306-1.027,3.095-0.237l0,0c0.79,0.79,0.684,2.175-0.237,3.095L17.55,33.037z"/>
</svg>
