<?xml version="1.0" encoding="utf-8"?>
<!-- Generator: Adobe Illustrator 16.0.0, SVG Export Plug-In . SVG Version: 6.00 Build 0)  -->
<!DOCTYPE svg PUBLIC "-//W3C//DTD SVG 1.1//EN" "http://www.w3.org/Graphics/SVG/1.1/DTD/svg11.dtd">
<svg version="1.1" id="Layer_1" xmlns="http://www.w3.org/2000/svg" xmlns:xlink="http://www.w3.org/1999/xlink" x="0px" y="0px"
	 width="100px" height="100px" viewBox="0 0 100 100" enable-background="new 0 0 100 100" xml:space="preserve">
<g>
	<path fill="#EA6225" d="M73.098,42.16V16.82c0-3.87-3.14-7-7-7H17.368c-3.86,0-7,3.13-7,7v66.36c0,3.859,3.14,7,7,7h48.729
		c3.86,0,7-3.141,7-7V73.16h-4.109v9.789c0,1.66-1.34,3-3,3h-48.69c-1.66,0-3-1.34-3-3V17.04c0-1.65,1.34-3,3-3h48.688
		c1.66,0,3,1.35,3,3v25.12H73.098z"/>
	<g>
		<g>
			<path fill="#EA6225" d="M26.841,70.182c1.663-2.971,3.306-5.899,5.447-8.562c0.964-1.199,3.197-3.521,3.456-0.748
				c0.1,1.071,0.054,2.163,0.092,3.237c0.074,2.101,1.209,3.805,3.419,2.971c2.491-0.939,5.985-7.004,6.725-2.153
				c0.386,2.533,2.272,3.025,4.456,2.228c1.201-0.438,0.683-2.372-0.531-1.928c-3.24,1.185-1.207-4.759-4.412-4.759
				c-2.68,0-7.614,7.322-7.695,2.099c-0.032-2.06,0.106-5.479-2.679-5.539c-4.281-0.092-8.396,9.271-10.004,12.145
				C24.484,70.298,26.211,71.307,26.841,70.182L26.841,70.182z"/>
		</g>
	</g>
	<polyline fill="none" stroke="#EA6225" stroke-width="3.5" stroke-miterlimit="10" points="23.641,31.768 42.167,31.768 
		59.775,31.768 	"/>
	<polyline fill="none" stroke="#EA6225" stroke-width="3.5" stroke-miterlimit="10" points="23.641,39.371 44.5,39.371 
		59.775,39.371 	"/>
	<polyline fill="none" stroke="#EA6225" stroke-width="3.5" stroke-miterlimit="10" points="23.641,46.168 45.5,46.168 
		53.066,46.168 	"/>
	<path fill="#EA6225" d="M88.991,42.334l-4.454,4.455l-4.323-4.323l4.455-4.455c0.776-0.778,1.97-0.858,2.647-0.179l1.854,1.853
		C89.852,40.364,89.77,41.556,88.991,42.334z"/>
	
		<rect x="67.691" y="41.696" transform="matrix(0.7071 0.7071 -0.7071 0.7071 60.5004 -33.5487)" fill="#EA6225" width="6.113" height="29.119"/>
	<polygon fill="#EA6225" points="61.42,69.906 57.098,65.582 56.038,70.965 	"/>
	<circle fill="#EA6225" cx="71.043" cy="41.913" r="2.058"/>
	<circle fill="#EA6225" cx="71.043" cy="73.023" r="2.058"/>
</g>
</svg>
