<?xml version="1.0" encoding="utf-8"?>
<!-- Generator: Adobe Illustrator 16.0.0, SVG Export Plug-In . SVG Version: 6.00 Build 0)  -->
<!DOCTYPE svg PUBLIC "-//W3C//DTD SVG 1.1//EN" "http://www.w3.org/Graphics/SVG/1.1/DTD/svg11.dtd">
<svg version="1.1" id="Layer_1" xmlns="http://www.w3.org/2000/svg" xmlns:xlink="http://www.w3.org/1999/xlink" x="0px" y="0px"
	 width="100px" height="100px" viewBox="0 0 100 100" enable-background="new 0 0 100 100" xml:space="preserve">
<circle fill="none" stroke="#EA6225" stroke-width="4" cx="50" cy="50" r="36.476"/>
<g>
	<path fill="#EA6225" d="M46.938,41.666l3.503,1.11c-0.537,1.953-1.431,3.404-2.68,4.352c-1.249,0.948-2.834,1.423-4.755,1.423
		c-2.376,0-4.329-0.813-5.859-2.436c-1.529-1.624-2.295-3.844-2.295-6.659c0-2.979,0.77-5.292,2.308-6.939
		c1.538-1.648,3.561-2.472,6.067-2.472c2.188,0,3.967,0.646,5.334,1.94c0.813,0.765,1.424,1.863,1.831,3.296l-3.577,0.854
		c-0.211-0.928-0.652-1.66-1.324-2.197c-0.671-0.537-1.487-0.806-2.447-0.806c-1.326,0-2.403,0.477-3.229,1.428
		c-0.826,0.953-1.239,2.495-1.239,4.627c0,2.263,0.407,3.874,1.221,4.834s1.872,1.44,3.174,1.44c0.96,0,1.786-0.306,2.478-0.915
		C46.141,43.936,46.637,42.976,46.938,41.666z"/>
	<path fill="#EA6225" d="M57.57,48.245V33.377H52.26V30.35H66.48v3.027h-5.297v14.868H57.57z"/>
	<path fill="#EA6225" d="M26.258,65.617l1.601-0.141c0.075,0.643,0.252,1.168,0.528,1.578c0.277,0.411,0.707,0.744,1.29,0.997
		c0.583,0.255,1.239,0.382,1.968,0.382c0.647,0,1.219-0.098,1.714-0.289c0.495-0.192,0.864-0.457,1.106-0.791
		c0.241-0.336,0.362-0.701,0.362-1.099c0-0.401-0.116-0.753-0.35-1.054c-0.233-0.301-0.618-0.553-1.154-0.758
		c-0.344-0.133-1.104-0.342-2.282-0.625c-1.178-0.281-2.003-0.549-2.475-0.799c-0.612-0.32-1.068-0.72-1.369-1.194
		c-0.3-0.476-0.45-1.007-0.45-1.597c0-0.646,0.184-1.252,0.551-1.813c0.368-0.563,0.904-0.989,1.609-1.281
		c0.705-0.291,1.489-0.437,2.353-0.437c0.95,0,1.788,0.152,2.514,0.459c0.727,0.306,1.284,0.756,1.675,1.351
		c0.391,0.595,0.601,1.269,0.63,2.021l-1.627,0.123c-0.087-0.812-0.383-1.422-0.888-1.836c-0.504-0.414-1.249-0.621-2.233-0.621
		c-1.026,0-1.774,0.188-2.243,0.563c-0.47,0.376-0.704,0.83-0.704,1.36c0,0.46,0.166,0.839,0.498,1.137
		c0.327,0.297,1.18,0.603,2.558,0.914c1.379,0.312,2.325,0.584,2.838,0.817c0.746,0.344,1.298,0.779,1.653,1.308
		c0.355,0.526,0.533,1.135,0.533,1.823c0,0.682-0.195,1.324-0.586,1.928s-0.952,1.073-1.684,1.408s-1.555,0.503-2.47,0.503
		c-1.161,0-2.133-0.169-2.917-0.509c-0.784-0.338-1.399-0.846-1.845-1.524C26.516,67.243,26.281,66.475,26.258,65.617z"/>
	<path fill="#EA6225" d="M47.927,65.241l1.697,0.429c-0.356,1.395-0.996,2.456-1.92,3.188c-0.924,0.732-2.054,1.099-3.389,1.099
		c-1.382,0-2.505-0.281-3.371-0.845c-0.865-0.563-1.524-1.377-1.977-2.443c-0.451-1.066-0.678-2.213-0.678-3.438
		c0-1.334,0.255-2.5,0.766-3.494c0.51-0.992,1.235-1.748,2.178-2.264c0.941-0.517,1.978-0.773,3.108-0.773
		c1.282,0,2.361,0.326,3.235,0.979c0.875,0.653,1.484,1.571,1.828,2.756l-1.671,0.394c-0.297-0.933-0.729-1.611-1.294-2.037
		s-1.276-0.64-2.134-0.64c-0.985,0-1.809,0.236-2.47,0.709c-0.662,0.473-1.127,1.105-1.396,1.902
		c-0.268,0.795-0.402,1.615-0.402,2.461c0,1.09,0.159,2.043,0.477,2.854c0.318,0.813,0.813,1.422,1.482,1.823
		c0.671,0.401,1.396,0.604,2.178,0.604c0.95,0,1.755-0.273,2.413-0.82C47.248,67.134,47.694,66.32,47.927,65.241z"/>
	<path fill="#EA6225" d="M50.306,69.736l4.924-12.82h1.826l5.248,12.82h-1.934l-1.495-3.883h-5.36l-1.408,3.883H50.306z
		 M54.005,64.473h4.347l-1.338-3.551c-0.408-1.079-0.712-1.965-0.91-2.658c-0.162,0.821-0.394,1.639-0.689,2.448L54.005,64.473z"/>
	<path fill="#EA6225" d="M63.643,69.736v-12.82h1.739l6.733,10.064V56.916h1.627v12.82h-1.74L65.27,59.662v10.074H63.643z"/>
</g>
</svg>
