<?xml version="1.0" encoding="utf-8"?>
<!-- Generator: Adobe Illustrator 13.0.0, SVG Export Plug-In . SVG Version: 6.00 Build 14948)  -->
<!DOCTYPE svg PUBLIC "-//W3C//DTD SVG 1.1//EN" "http://www.w3.org/Graphics/SVG/1.1/DTD/svg11.dtd">
<svg version="1.1" id="Layer_1" xmlns="http://www.w3.org/2000/svg" xmlns:xlink="http://www.w3.org/1999/xlink" x="0px" y="0px"
	 width="100px" height="100px" viewBox="0 0 100 100" enable-background="new 0 0 100 100" xml:space="preserve">
<g>
	<g id="Group-3" transform="translate(0.000000, 0.428872)">
		<g id="Clip-2">
		</g>
		<defs>
			<filter id="Adobe_OpacityMaskFilter" filterUnits="userSpaceOnUse" x="2.888" y="6.635" width="15.89" height="16.625">
				<feColorMatrix  type="matrix" values="1 0 0 0 0  0 1 0 0 0  0 0 1 0 0  0 0 0 1 0"/>
			</filter>
		</defs>
		<mask maskUnits="userSpaceOnUse" x="2.888" y="6.635" width="15.89" height="16.625" id="mask-2_2_">
			<g filter="url(#Adobe_OpacityMaskFilter)">
			</g>
		</mask>
		<path id="Fill-1" mask="url(#mask-2_2_)" fill="#FFFFFF" stroke="#FFFFFF" d="M4.347,7.135h12.972c0.53,0,0.959,0.467,0.959,1.044
			v1.126c0,0.58-0.431,1.047-0.963,1.045l-9.894-0.048C6.89,10.3,6.458,10.767,6.457,11.345L6.435,21.717
			c-0.001,0.577-0.43,1.042-0.959,1.042H4.347c-0.53,0-0.959-0.467-0.959-1.043V8.179C3.388,7.602,3.817,7.135,4.347,7.135"/>
	</g>
	<path id="Fill-4" fill="#FEFEFE" d="M4.561,91.18h12.972c0.529,0,0.959-0.423,0.959-0.945v-1.02c0-0.523-0.432-0.949-0.961-0.945
		l-9.895,0.043c-0.531,0.002-0.962-0.422-0.964-0.943l-0.021-9.393c-0.002-0.521-0.43-0.944-0.959-0.944H4.561
		c-0.529,0-0.959,0.425-0.959,0.945v12.257C3.602,90.757,4.031,91.18,4.561,91.18"/>
	<g id="Group-8" transform="translate(83.476190, 0.428872)">
		<g id="Clip-7">
		</g>
		<defs>
			<filter id="Adobe_OpacityMaskFilter_1_" filterUnits="userSpaceOnUse" x="-2.079" y="7.39" width="14.215" height="15.624">
				<feColorMatrix  type="matrix" values="1 0 0 0 0  0 1 0 0 0  0 0 1 0 0  0 0 0 1 0"/>
			</filter>
		</defs>
		<mask maskUnits="userSpaceOnUse" x="-2.079" y="7.39" width="14.215" height="15.624" id="mask-4_2_">
			<g filter="url(#Adobe_OpacityMaskFilter_1_)">
			</g>
		</mask>
		<path id="Fill-6" mask="url(#mask-4_2_)" fill="#FEFEFE" d="M11.221,7.39H-1.165c-0.504,0-0.914,0.467-0.914,1.044v1.127
			c0,0.579,0.412,1.045,0.92,1.044l9.445-0.049c0.506-0.001,0.919,0.465,0.919,1.043l0.021,10.373c0,0.576,0.41,1.041,0.916,1.041
			h1.078c0.506,0,0.915-0.467,0.915-1.042V8.435C12.136,7.858,11.727,7.39,11.221,7.39"/>
	</g>
	<path id="Fill-9" fill="#FEFEFE" d="M94.492,91.437H82.107c-0.505,0-0.915-0.425-0.915-0.946v-1.019
		c0-0.525,0.412-0.949,0.919-0.946l9.446,0.043c0.507,0.001,0.92-0.421,0.92-0.944l0.021-9.392c0-0.522,0.409-0.944,0.916-0.944
		h1.077c0.506,0,0.916,0.424,0.916,0.946V90.49C95.408,91.012,94.998,91.437,94.492,91.437"/>
	<path id="Fill-9_1_" fill="#FEFEFE" d="M94.492,7.743c0.506,0,0.916,0.425,0.916,0.946v12.256c0,0.522-0.41,0.946-0.916,0.946
		h-1.077c-0.507,0-0.916-0.422-0.916-0.944l-0.021-9.392c0-0.523-0.413-0.945-0.92-0.944l-9.446,0.043
		c-0.507,0.003-0.919-0.421-0.919-0.946V8.689c0-0.521,0.41-0.946,0.915-0.946H94.492"/>
	<path id="Fill-9_2_" fill="#FEFEFE" d="M3.885,7.743H16.27c0.505,0,0.915,0.425,0.915,0.946v1.019c0,0.525-0.412,0.949-0.919,0.946
		l-9.446-0.043c-0.507-0.001-0.92,0.421-0.92,0.944l-0.021,9.392c0,0.522-0.409,0.944-0.916,0.944H3.885
		c-0.506,0-0.916-0.424-0.916-0.946V8.689C2.969,8.168,3.379,7.743,3.885,7.743"/>
	<path id="Fill-11" opacity="0.32" fill="#FEFEFE" enable-background="new    " d="M42.657,24.15c0,0,17.083,15.894,2.78,26.404
		c-8.924,6.555-8.811,14.776-8.811,14.776s0.339,7.886,9.053,14.061c3.51,2.486-18.625-4.971-20.767-9.412
		c-2.14-4.442-7.568-25.049-1.189-34.79C30.102,25.449,42.657,24.15,42.657,24.15"/>
	<path id="Fill-13" opacity="0.2" enable-background="new    " d="M47.23,72.683c0,0-3.16-4.176,0-7.35
		c3.161-3.176,9.809-3.711,10.142-9.79c0.332-6.082-1.497-7.085-1.164-12.429c0.334-5.347,7.313-13.106,7.313-13.106
		s4.008,2.206,4.798,4.074c12.202,16.174,2.261,34.096-0.337,36.349C53.624,81.843,47.23,72.683,47.23,72.683"/>
	<path id="Fill-15" fill="#FEFEFE" d="M47.491,24.687c-14.57,0-26.424,11.914-26.424,26.558s11.854,26.56,26.424,26.56
		s26.422-11.915,26.422-26.56S62.061,24.687,47.491,24.687 M47.491,81.009c-16.328,0-29.611-13.352-29.611-29.764
		c0-16.411,13.284-29.762,29.611-29.762c16.327,0,29.61,13.352,29.61,29.762C77.101,67.657,63.817,81.009,47.491,81.009"/>
	<path id="Fill-17" fill="#FEFEFE" d="M43.723,64.419L30.97,46.761c-0.517-0.717-0.359-1.717,0.355-2.238
		c0.709-0.519,1.71-0.362,2.224,0.355L44.324,59.8l37.349-30.502c0.683-0.554,1.688-0.45,2.242,0.233
		c0.555,0.686,0.451,1.696-0.231,2.255L43.723,64.419z"/>
</g>
</svg>
