<?xml version="1.0" encoding="utf-8"?>
<!-- Generator: Adobe Illustrator 16.0.0, SVG Export Plug-In . SVG Version: 6.00 Build 0)  -->
<!DOCTYPE svg PUBLIC "-//W3C//DTD SVG 1.1//EN" "http://www.w3.org/Graphics/SVG/1.1/DTD/svg11.dtd">
<svg version="1.1" id="Layer_1" xmlns="http://www.w3.org/2000/svg" xmlns:xlink="http://www.w3.org/1999/xlink" x="0px" y="0px"
	 width="100px" height="100px" viewBox="0 0 100 100" enable-background="new 0 0 100 100" xml:space="preserve">
<g id="Page-1">
	<g>
		<path id="Stroke-1" fill="#FEFEFE" d="M10.307,34.539c0,1.036,0.84,1.876,1.877,1.876h28.973c1.035,0,1.875-0.841,1.875-1.876
			V11.748c0-1.036-0.839-1.876-1.875-1.876h-30.85V34.539z M41.157,41.885H12.184c-4.057,0-7.345-3.29-7.345-7.346V9.782
			c0-2.971,2.406-5.379,5.378-5.379h30.939c4.056,0,7.343,3.289,7.343,7.345v22.791C48.5,38.595,45.212,41.885,41.157,41.885z"/>
		<path id="Stroke-3" fill="#FEFEFE" d="M89.408,49.51l-0.152,43.842c-0.007,1.511,1.214,2.738,2.724,2.746
			c1.511,0.003,2.738-1.216,2.744-2.726l0.163-46.581c0.005-1.512-1.217-2.74-2.728-2.744l-85.102-0.19
			c-1.499-0.004-2.721,1.199-2.741,2.698L3.702,94.095c-0.02,1.511,1.188,2.751,2.699,2.77c1.51,0.021,2.75-1.188,2.769-2.697
			l0.581-44.834L89.408,49.51z"/>
		<g id="Group-8" transform="translate(26.000000, 25.268200)">
			<path id="Fill-5" fill="#6BCBDF" d="M30.287,30.813h22.972"/>
			<path id="Stroke-7" fill="#FEFEFE" d="M30.287,33.547h22.972c1.51,0,2.734-1.225,2.734-2.734c0-1.511-1.225-2.734-2.734-2.734
				H30.287c-1.51,0-2.734,1.224-2.734,2.734C27.553,32.323,28.777,33.547,30.287,33.547z"/>
		</g>
		<g id="Group-12" transform="translate(7.000000, 18.268200)">
			<path id="Fill-9" fill="#6BCBDF" d="M13.102,24.828h11.729"/>
			<path id="Stroke-11" fill="#FEFEFE" d="M13.102,27.562h11.729c1.51,0,2.734-1.225,2.734-2.734c0-1.51-1.224-2.735-2.734-2.735
				H13.102c-1.51,0-2.734,1.225-2.734,2.735C10.368,26.338,11.592,27.562,13.102,27.562z"/>
		</g>
		<g id="Group-16" transform="translate(26.000000, 30.268200)">
			<path id="Fill-13" fill="#6BCBDF" d="M30.165,35.418h22.971"/>
			<path id="Stroke-15" fill="#FEFEFE" d="M30.165,38.153h22.971c1.511,0,2.734-1.225,2.734-2.734c0-1.511-1.224-2.734-2.734-2.734
				H30.165c-1.511,0-2.734,1.224-2.734,2.734C27.431,36.928,28.654,38.153,30.165,38.153z"/>
		</g>
		<g id="Group-20" transform="translate(26.000000, 35.268200)">
			<path id="Fill-17" fill="#6BCBDF" d="M30.287,39.903h22.972"/>
			<path id="Stroke-19" fill="#FEFEFE" d="M30.287,42.637h22.972c1.51,0,2.734-1.225,2.734-2.734c0-1.511-1.225-2.735-2.734-2.735
				H30.287c-1.51,0-2.734,1.225-2.734,2.735C27.553,41.412,28.777,42.637,30.287,42.637z"/>
		</g>
	</g>
</g>
</svg>
