<?xml version="1.0" encoding="utf-8"?>
<!-- Generator: Adobe Illustrator 16.0.0, SVG Export Plug-In . SVG Version: 6.00 Build 0)  -->
<!DOCTYPE svg PUBLIC "-//W3C//DTD SVG 1.1//EN" "http://www.w3.org/Graphics/SVG/1.1/DTD/svg11.dtd">
<svg version="1.1" id="Layer_1" xmlns="http://www.w3.org/2000/svg" xmlns:xlink="http://www.w3.org/1999/xlink" x="0px" y="0px"
	 width="100px" height="100px" viewBox="0 0 100 100" enable-background="new 0 0 100 100" xml:space="preserve">
<g id="Page-1">
	<g id="Group-2" transform="translate(1.000000, 1.000000)">
		<path id="Fill-1" fill="#FFFFFF" d="M67.975,32.479c-0.728-0.371-0.626,2.982-1.271,2.654c-0.605,1.065-1.846-1.589-2.434-0.556
			c0.723,0.35,1.335,0.645,1.977,0.956C66.845,34.479,67.371,33.55,67.975,32.479 M37.942,41.512
			c-0.063,0.077,0.271,0.644,0.208,0.721c2.148,2.981,8.605,9.599,10.91,12.796c0.781-1.354,1.683-2.012,2.378-3.215
			c-1.502-1.168-3.001-2.05-4.407-3.304C45.553,47.19,39.322,42.45,37.942,41.512 M6.996,19.104
			c-0.153,0.052-0.484-2.527-0.638-2.474C6.556,17.476,6.462,18.716,6.996,19.104c3.71,2.681,7.55,5.184,11.349,7.745
			c0.153-0.048,0.308-0.098,0.461-0.146c-0.164-0.806-1.077-0.651-1.571-1.009C13.485,22.976,10.828,21.707,6.996,19.104
			 M22.749,22.421c-2.525-3.511-5.079-6.913-7.454-10.433c-0.926-1.37-1.976-1.338-3.448-1.061
			c3.448,1.061,10.106,6.416,9.716,10.92C22.452,23.159,21.347,23.191,22.749,22.421 M53.94,46.926
			c-4.505-3.05-9.152-5.62-13.437-8.521c-0.615,0.614-1.444,1.682-2.193,2.43c5.026,3.432,9.428,6.418,13.694,9.332
			C52.542,49.311,53.471,47.678,53.94,46.926 M46.113,59.828c0.289-1.498,2.759-2.573,1.526-4.192
			c-3.023-3.967-6.379-7.364-9.318-11.395c-0.397-0.545-1.036-1.446-1.479-1.919c-0.649,0.632-1.311,1.272-1.88,1.827
			C38.64,49.273,42.201,54.378,46.113,59.828 M38.609,37.701c-4.425-4.154-8.827-8.238-13.163-12.39
			c-1.018-0.974-2.022-1.459-3.356-0.856c-0.544,0.245-1.192,0.719-1.484,0.902c-1.077,0.673-1.664,3.517-0.449,4.714
			c4.044,3.986,5.58,5.8,9.909,9.769c0.548,0.502,3.25,2.648,3.681,3.166C35.375,41.311,37.075,39.301,38.609,37.701 M73.943,92.604
			c-7.078-9.778-13.409-20.432-20.688-30.106c-1.56,2.4-2.156,3.094-0.695,5.108c2.173,2.997,4.325,6.008,6.524,8.984
			c0.57,0.77,0.659,1.422,0.191,2.299c-1.183,2.211-1.489,4.548-1.014,7.047C59.564,92.748,68.087,96.465,73.943,92.604
			 M57.394,54.675c10.817,7.358,22.001,14.106,32.801,21.456c2.31-4.006,1.688-9.065-1.379-12.233
			c-3.396-3.507-7.813-4.871-12.012-2.604c-1.151,0.622-1.887,0.494-2.881-0.195c-4.695-3.252-9.927-5.993-14.669-9.214
			c-0.243,0.224-0.457,0.35-0.57,0.538C58.399,52.892,57.764,53.979,57.394,54.675 M83.295,5.425
			c-3.73,0.909-6.775,2.51-9.498,4.694c-4.456,3.577-7.915,7.888-9.275,13.539c-0.495,2.055-0.693,4.261,1.358,5.767
			c0.856,0.628,1.88,1.034,2.938,1.601C73.615,22.542,78.375,14.127,83.295,5.425 M65.301,37.215
			c-2.407-1.854-4.838-1.306-5.783,1.422c-1.848,5.334-4.639,10.164-7.601,14.93c-6.596,10.613-13.152,21.251-19.662,31.917
			c-0.604,0.99-0.999,2.24-1.057,3.392c-0.082,1.595,1.435,2.525,2.813,1.732c0.965-0.556,1.873-1.469,2.422-2.436
			C46.075,71.234,55.659,54.263,65.301,37.215 M50.242,67.316c-1.491,2.641-2.908,5.156-4.331,7.669
			c-2.654,4.685-5.292,9.377-7.984,14.039c-0.485,0.839-1.1,1.654-1.819,2.302c-1.633,1.47-3.481,1.655-5.047,0.664
			c-1.334-0.844-2.158-2.973-1.418-4.762c0.867-2.097,2.027-4.091,3.214-6.037c4.168-6.831,7.774-12.911,12.047-19.824
			c-1.813-3.054-3.354-5.243-5.769-8.634c-5.313-8.37-13.756-15.279-20.913-22.225c-2.689-2.61-5.538-5.389-8.661-7.557
			c-0.347-0.24-0.707-0.462-1.057-0.696c-3.877-2.605-3.877-2.605-3.7-7.267c0.053-1.358,0.481-1.592,1.654-0.807
			c3.461,2.319,9.221,6.915,12.853,9.098c-2.046-2.854-6.41-7.954-8.457-10.807c-0.437-0.61-0.912-1.196-1.301-1.834
			c-0.543-0.888-0.245-1.447,0.797-1.49c1.414-0.059,2.835-0.12,4.242-0.021c0.453,0.032,0.985,0.483,1.284,0.886
			c2.485,3.35,4.884,6.763,7.395,10.094c1.177,1.563,2.43,3.103,3.841,4.456c4.241,4.067,8.464,8.167,12.919,11.996
			c2.618,2.25,5.998,3.835,8.858,5.804c1.854,1.276,3.561,2.347,5.594,3.723c0.499-1.027,0.824-1.593,1.229-2.56
			c0.808-1.937,1.417-3.972,2.393-5.817c0.576-1.088,1.542-2.329,2.617-2.715c1.563-0.562,2.309-1.566,2.964-2.858
			c0.233-0.457,0.499-0.898,0.798-1.43c-2.854-3.043-2.308-6.567-0.877-9.911c3.775-8.826,10.281-14.706,19.744-17.112
			c0.525-0.134,1.431,0.058,1.71,0.43c0.279,0.374,0.198,1.277-0.072,1.755c-6.931,12.261-13.912,24.493-20.868,36.74
			c-1.403,2.47-2.736,4.978-4.184,7.617c1.689,1.177,4.291,2.48,5.983,3.525c3.915,2.422,5.638,3.283,8.811,5.243
			c0.718,0.495,1.261,0.587,2.134,0.202c7.275-3.2,14.389,1.482,16.182,9.176c0.699,3.005,0.261,5.946-1.309,8.669
			c-0.804,1.395-1.066,1.479-2.38,0.586c-10.101-6.858-20.47-13.031-30.565-19.894c-0.694-0.473-1.397-0.933-2.169-1.448
			c-1.02,1.795-1.217,2.025-2.122,3.815c-0.181,0.356,0.005,1.076,0.273,1.452c6.949,9.66,13.358,20.098,20.34,29.736
			c1.334,1.844,1.301,2.032-0.7,3.126c-4.409,2.412-10.14,1.809-13.846-1.458c-4.012-3.535-5.375-8.967-3.326-13.768
			c0.445-1.042,0.38-1.713-0.298-2.61C54.693,73.587,52.546,70.517,50.242,67.316"/>
		<path id="Stroke-3" fill="none" stroke="#FFFFFF" d="M67.975,32.479c-0.728-0.371-0.626,2.982-1.271,2.654
			c-0.605,1.065-1.846-1.589-2.434-0.556c0.723,0.35,1.335,0.645,1.977,0.956C66.845,34.479,67.371,33.55,67.975,32.479
			L67.975,32.479z M37.942,41.512c-0.063,0.077,0.271,0.644,0.208,0.721c2.148,2.981,8.605,9.599,10.91,12.796
			c0.781-1.354,1.683-2.012,2.378-3.215c-1.502-1.168-3.001-2.05-4.407-3.304C45.553,47.19,39.322,42.45,37.942,41.512
			L37.942,41.512z M6.996,19.104c-0.153,0.052-0.484-2.527-0.638-2.474C6.556,17.476,6.462,18.716,6.996,19.104
			c3.71,2.681,7.55,5.184,11.349,7.745c0.153-0.048,0.308-0.098,0.461-0.146c-0.164-0.806-1.077-0.651-1.571-1.009
			C13.485,22.976,10.828,21.707,6.996,19.104L6.996,19.104z M22.749,22.421c-2.525-3.511-5.079-6.913-7.454-10.433
			c-0.926-1.37-1.976-1.338-3.448-1.061c3.448,1.061,10.106,6.416,9.716,10.92C22.452,23.159,21.347,23.191,22.749,22.421
			L22.749,22.421z M53.94,46.926c-4.505-3.05-9.152-5.62-13.437-8.521c-0.615,0.614-1.444,1.682-2.193,2.43
			c5.026,3.432,9.428,6.418,13.694,9.332C52.542,49.311,53.471,47.678,53.94,46.926L53.94,46.926z M46.113,59.828
			c0.289-1.498,2.759-2.573,1.526-4.192c-3.023-3.967-6.379-7.364-9.318-11.395c-0.397-0.545-1.036-1.446-1.479-1.919
			c-0.649,0.632-1.311,1.272-1.88,1.827C38.64,49.273,42.201,54.378,46.113,59.828L46.113,59.828z M38.609,37.701
			c-4.425-4.154-8.827-8.238-13.163-12.39c-1.018-0.974-2.022-1.459-3.356-0.856c-0.544,0.245-1.192,0.719-1.484,0.902
			c-1.077,0.673-1.664,3.517-0.449,4.714c4.044,3.986,5.58,5.8,9.909,9.769c0.548,0.502,3.25,2.648,3.681,3.166
			C35.375,41.311,37.075,39.301,38.609,37.701L38.609,37.701z M73.943,92.604c-7.078-9.778-13.409-20.432-20.688-30.106
			c-1.56,2.4-2.156,3.094-0.695,5.108c2.173,2.997,4.325,6.008,6.524,8.984c0.57,0.77,0.659,1.422,0.191,2.299
			c-1.183,2.211-1.489,4.548-1.014,7.047C59.564,92.748,68.087,96.465,73.943,92.604L73.943,92.604z M57.394,54.675
			c10.817,7.358,22.001,14.106,32.801,21.456c2.31-4.006,1.688-9.065-1.379-12.233c-3.396-3.507-7.813-4.871-12.012-2.604
			c-1.151,0.622-1.887,0.494-2.881-0.195c-4.695-3.252-9.927-5.993-14.669-9.214c-0.243,0.224-0.457,0.35-0.57,0.538
			C58.399,52.892,57.764,53.979,57.394,54.675L57.394,54.675z M83.295,5.425c-3.73,0.909-6.775,2.51-9.498,4.694
			c-4.456,3.577-7.915,7.888-9.275,13.539c-0.495,2.055-0.693,4.261,1.358,5.767c0.856,0.628,1.88,1.034,2.938,1.601
			C73.615,22.542,78.375,14.127,83.295,5.425L83.295,5.425z M65.301,37.215c-2.407-1.854-4.838-1.306-5.783,1.422
			c-1.848,5.334-4.639,10.164-7.601,14.93c-6.596,10.613-13.152,21.251-19.662,31.917c-0.604,0.99-0.999,2.24-1.057,3.392
			c-0.082,1.595,1.435,2.525,2.813,1.732c0.965-0.556,1.873-1.469,2.422-2.436C46.075,71.234,55.659,54.263,65.301,37.215
			L65.301,37.215z M45.911,74.985c-2.654,4.685-5.292,9.377-7.984,14.039c-0.485,0.839-1.1,1.654-1.819,2.302
			c-1.633,1.47-3.481,1.655-5.047,0.664c-1.334-0.844-2.158-2.973-1.418-4.762c0.867-2.097,2.027-4.091,3.214-6.037
			c4.168-6.831,7.774-12.911,12.047-19.824c-1.813-3.054-3.354-5.243-5.769-8.634c-5.313-8.37-13.756-15.279-20.913-22.225
			c-2.689-2.61-5.538-5.389-8.661-7.557c-0.347-0.24-0.707-0.462-1.057-0.696c-3.877-2.605-3.877-2.605-3.7-7.267
			c0.053-1.358,0.481-1.592,1.654-0.807c3.461,2.319,9.221,6.915,12.853,9.098c-2.046-2.854-6.41-7.954-8.457-10.807
			c-0.437-0.61-0.912-1.196-1.301-1.834c-0.543-0.888-0.245-1.447,0.797-1.49c1.414-0.059,2.835-0.12,4.242-0.021
			c0.453,0.032,0.985,0.483,1.284,0.886c2.485,3.35,4.884,6.763,7.395,10.094c1.177,1.563,2.43,3.103,3.841,4.456
			c4.241,4.067,8.464,8.167,12.919,11.996c2.618,2.25,5.998,3.835,8.858,5.804c1.854,1.276,3.561,2.347,5.594,3.723
			c0.499-1.027,0.824-1.593,1.229-2.56c0.808-1.937,1.417-3.972,2.393-5.817c0.576-1.088,1.542-2.329,2.617-2.715
			c1.563-0.562,2.309-1.566,2.964-2.858c0.233-0.457,0.499-0.898,0.798-1.43c-2.854-3.043-2.308-6.567-0.877-9.911
			c3.775-8.826,10.281-14.706,19.744-17.112c0.525-0.134,1.431,0.058,1.71,0.43c0.279,0.374,0.198,1.277-0.072,1.755
			c-6.931,12.261-13.912,24.493-20.868,36.74c-1.403,2.47-2.736,4.978-4.184,7.617c1.689,1.177,4.291,2.48,5.983,3.525
			c3.915,2.422,5.638,3.283,8.811,5.243c0.718,0.495,1.261,0.587,2.134,0.202c7.275-3.2,14.389,1.482,16.182,9.176
			c0.699,3.005,0.261,5.946-1.309,8.669c-0.804,1.395-1.066,1.479-2.38,0.586c-10.101-6.858-20.47-13.031-30.565-19.894
			c-0.694-0.473-1.397-0.933-2.169-1.448c-1.02,1.795-1.217,2.025-2.122,3.815c-0.181,0.356,0.005,1.076,0.273,1.452
			c6.949,9.66,13.358,20.098,20.34,29.736c1.334,1.844,1.301,2.032-0.7,3.126c-4.409,2.412-10.14,1.809-13.846-1.458
			c-4.012-3.535-5.375-8.967-3.326-13.768c0.445-1.042,0.38-1.713-0.298-2.61c-2.254-2.991-4.401-6.062-6.705-9.262
			C48.751,69.957,47.334,72.473,45.911,74.985z"/>
	</g>
</g>
</svg>
