<?xml version="1.0" encoding="utf-8"?>
<!-- Generator: Adobe Illustrator 13.0.0, SVG Export Plug-In . SVG Version: 6.00 Build 14948)  -->
<!DOCTYPE svg PUBLIC "-//W3C//DTD SVG 1.1//EN" "http://www.w3.org/Graphics/SVG/1.1/DTD/svg11.dtd">
<svg version="1.1" id="Layer_1" xmlns="http://www.w3.org/2000/svg" xmlns:xlink="http://www.w3.org/1999/xlink" x="0px" y="0px"
	 width="100px" height="100px" viewBox="0 0 100 100" enable-background="new 0 0 100 100" xml:space="preserve">
<g>
	<g id="Group-3" transform="translate(0.000000, 0.719624)">
		<g id="Clip-2">
		</g>
		<defs>
			<filter id="Adobe_OpacityMaskFilter" filterUnits="userSpaceOnUse" x="1.23" y="5.261" width="15.7" height="16.313">
				<feColorMatrix  type="matrix" values="1 0 0 0 0  0 1 0 0 0  0 0 1 0 0  0 0 0 1 0"/>
			</filter>
		</defs>
		<mask maskUnits="userSpaceOnUse" x="1.23" y="5.261" width="15.7" height="16.313" id="mask-2_2_">
			<g filter="url(#Adobe_OpacityMaskFilter)">
			</g>
		</mask>
		<path id="Fill-1" mask="url(#mask-2_2_)" fill="#FEFEFE" d="M2.242,5.261H15.92c0.558,0,1.011,0.488,1.011,1.089v1.178
			c0,0.604-0.455,1.093-1.015,1.089L5.482,8.567c-0.56-0.002-1.015,0.486-1.016,1.087L4.443,20.485
			c-0.002,0.6-0.453,1.088-1.011,1.088h-1.19c-0.559,0-1.012-0.49-1.012-1.092V6.35C1.23,5.749,1.683,5.261,2.242,5.261"/>
	</g>
	<path id="Fill-4" fill="#FEFEFE" d="M2.468,93.271h13.677c0.559,0,1.012-0.441,1.012-0.986v-1.065c0-0.547-0.455-0.99-1.015-0.988
		L5.709,90.277c-0.561,0.002-1.016-0.439-1.018-0.984L4.67,79.487c-0.002-0.545-0.453-0.986-1.012-0.986h-1.19
		c-0.559,0-1.012,0.443-1.012,0.987v12.796C1.456,92.829,1.909,93.271,2.468,93.271"/>
	<g id="Group-8" transform="translate(81.358491, 0.719624)">
		<g id="Clip-7">
		</g>
		<defs>
			<filter id="Adobe_OpacityMaskFilter_1_" filterUnits="userSpaceOnUse" x="2.128" y="5.527" width="14.99" height="16.312">
				<feColorMatrix  type="matrix" values="1 0 0 0 0  0 1 0 0 0  0 0 1 0 0  0 0 0 1 0"/>
			</filter>
		</defs>
		<mask maskUnits="userSpaceOnUse" x="2.128" y="5.527" width="14.99" height="16.312" id="mask-4_2_">
			<g filter="url(#Adobe_OpacityMaskFilter_1_)">
			</g>
		</mask>
		<path id="Fill-6" mask="url(#mask-4_2_)" fill="#FEFEFE" d="M16.153,5.527H3.095c-0.534,0-0.967,0.488-0.967,1.089v1.178
			c0,0.604,0.437,1.093,0.971,1.089l9.961-0.05c0.534-0.002,0.969,0.486,0.969,1.087l0.022,10.83
			c0.001,0.601,0.433,1.088,0.965,1.088h1.138c0.532,0,0.965-0.489,0.965-1.091V6.617C17.118,6.015,16.685,5.527,16.153,5.527"/>
	</g>
	<path id="Fill-9" fill="#FEFEFE" d="M97.296,93.537H84.238c-0.535,0-0.968-0.441-0.968-0.986v-1.064
		c0-0.547,0.437-0.99,0.972-0.988l9.96,0.045c0.534,0.002,0.97-0.439,0.97-0.984l0.021-9.805c0.002-0.545,0.433-0.986,0.965-0.986
		h1.138c0.532,0,0.966,0.443,0.966,0.988v12.795C98.262,93.096,97.828,93.537,97.296,93.537"/>
	<path id="Fill-11" opacity="0.32" fill="#FEFEFE" enable-background="new    " d="M18.141,7.587l0.095,85.884
		c0.001,0.852-0.699,1.549-1.554,1.549l0,0c-0.855,0.002-1.557-0.693-1.557-1.545L15.031,7.59c-0.002-0.852,0.697-1.549,1.553-1.549
		l0,0C17.439,6.04,18.139,6.735,18.141,7.587"/>
	<path id="Fill-13" opacity="0.32" fill="#FEFEFE" enable-background="new    " d="M30.514,7.587l0.095,85.667
		c0,0.852-0.699,1.549-1.554,1.549l0,0c-0.855,0.002-1.557-0.693-1.559-1.545L27.404,7.59c-0.002-0.852,0.697-1.549,1.553-1.549l0,0
		C29.813,6.04,30.512,6.735,30.514,7.587"/>
	<path id="Fill-15" opacity="0.32" fill="#FEFEFE" enable-background="new    " d="M45.583,7.575l0.095,85.679
		c0,0.852-0.699,1.547-1.554,1.549c-0.856,0-1.558-0.695-1.558-1.545l-0.094-85.68c-0.002-0.852,0.697-1.549,1.553-1.549l0,0
		C44.883,6.027,45.581,6.723,45.583,7.575"/>
	<path id="Fill-17" opacity="0.32" fill="#FEFEFE" enable-background="new    " d="M59.611,7.555l0.094,85.698
		c0,0.853-0.698,1.55-1.553,1.552l0,0c-0.855,0-1.557-0.696-1.557-1.549L56.502,7.559c-0.002-0.852,0.696-1.549,1.553-1.549l0,0
		C58.91,6.007,59.609,6.703,59.611,7.555"/>
	<path id="Fill-19" opacity="0.32" fill="#FEFEFE" enable-background="new    " d="M73.425,7.803l0.095,85.45
		c0,0.853-0.699,1.55-1.554,1.552l0,0c-0.856,0-1.557-0.696-1.559-1.549L70.314,7.807c-0.002-0.852,0.697-1.549,1.554-1.549l0,0
		C72.725,6.256,73.423,6.952,73.425,7.803"/>
	<path id="Fill-21" opacity="0.32" fill="#FEFEFE" enable-background="new    " d="M85.677,7.527l0.095,85.727
		c0,0.851-0.699,1.548-1.554,1.55l0,0c-0.856,0-1.558-0.696-1.558-1.546L82.566,7.53c-0.002-0.852,0.697-1.549,1.553-1.549
		C84.977,5.979,85.675,6.675,85.677,7.527"/>
	<path id="Fill-23" opacity="0.32" fill="#FEFEFE" enable-background="new    " d="M94.307,19.016L7.529,18.947
		c-0.854-0.001-1.555-0.698-1.553-1.549c0-0.852,0.7-1.547,1.557-1.547l86.775,0.07c0.857,0,1.556,0.697,1.556,1.547
		C95.864,18.32,95.164,19.016,94.307,19.016"/>
	<path id="Fill-25" opacity="0.32" fill="#FEFEFE" enable-background="new    " d="M92.963,31.328L6.184,31.26
		c-0.854-0.002-1.555-0.699-1.553-1.549c0-0.853,0.701-1.549,1.557-1.549l86.777,0.07c0.855,0,1.555,0.697,1.555,1.548l0,0
		C94.52,30.632,93.818,31.328,92.963,31.328"/>
	<path id="Fill-27" opacity="0.32" fill="#FEFEFE" enable-background="new    " d="M92.946,46.322L6.168,46.254
		c-0.854-0.001-1.555-0.699-1.553-1.549l0,0c0-0.852,0.701-1.547,1.557-1.547l86.776,0.069c0.856,0,1.556,0.698,1.556,1.548l0,0
		C94.504,45.627,93.803,46.322,92.946,46.322"/>
	<path id="Fill-29" opacity="0.32" fill="#FEFEFE" enable-background="new    " d="M6.021,60.434c-0.778,0-1.414-0.636-1.414-1.41
		v-0.279c0.002-0.775,0.638-1.408,1.416-1.406l87.059,0.068c0.779,0,1.415,0.635,1.413,1.409v0.28c0,0.773-0.638,1.407-1.417,1.405"
		/>
	<path id="Fill-31" opacity="0.32" fill="#FEFEFE" enable-background="new    " d="M93.613,74.241L6.835,74.173
		c-0.854-0.001-1.556-0.699-1.554-1.55l0,0c0-0.852,0.701-1.547,1.557-1.547l86.777,0.07c0.855,0,1.555,0.697,1.555,1.547l0,0
		C95.17,73.545,94.469,74.241,93.613,74.241"/>
	<path id="Fill-33" opacity="0.32" fill="#FEFEFE" enable-background="new    " d="M92.918,86.221L6.141,86.152
		c-0.854-0.002-1.555-0.699-1.553-1.55l0,0c0-0.852,0.7-1.548,1.557-1.548l86.775,0.07c0.856,0,1.556,0.697,1.556,1.548l0,0
		C94.476,85.524,93.774,86.221,92.918,86.221"/>
	<path id="Fill-35" fill="#FEFEFE" d="M39.162,90.696h23.404l-2.1-15.532c-0.096-0.707,0.248-1.403,0.869-1.76
		c3.125-1.798,6.227-4.037,6.637-4.791l2.811-10.099c0.185-0.666,0.743-1.161,1.428-1.27c0.016-0.004,1.218-0.259,1.898-1.646
		c2.158-4.395,2.374-9.297,1.339-11.496c-0.103-0.213-0.188-0.307-0.213-0.326c-0.139-0.027-0.511,0.162-0.683,0.232
		c-0.387,0.158-1.561,0.633-2.438-0.35c-0.302-0.34-0.71-1.041-0.253-2.09c2.154-10.963-1.227-20.523-9.292-26.254
		c-7.351-5.223-17.103-5.926-24.265-1.746c-8.42,4.906-12.201,15.389-10.65,29.521c0.08,0.732-0.31,1.439-0.973,1.768
		c-0.666,0.33-1.465,0.209-2.005-0.299c-0.075-0.072-0.146-0.135-0.211-0.193c-0.114,1.051-0.042,2.719-0.005,3.553
		c0.023,0.566,0.045,1.078,0.045,1.484c0,1.912,1.164,6.315,2.82,7.563c0.405,0.305,0.695,0.312,1.002,0.221
		c0.904-0.25,1.848,0.238,2.154,1.119c0.225,0.649,0.572,2.057,1.119,4.297c0.371,1.525,0.787,3.23,1.189,4.741
		c0.852,3.211,5.315,5.708,6.965,6.399c0.719,0.304,1.159,1.043,1.072,1.816L39.162,90.696z M64.588,94.219H37.189
		c-0.503,0-0.984-0.215-1.318-0.586c-0.335-0.371-0.496-0.87-0.441-1.367l1.744-15.852c-2.194-1.139-6.68-3.93-7.805-8.172
		c-0.406-1.53-0.83-3.262-1.207-4.806c-0.242-0.995-0.479-1.96-0.67-2.706c-0.808-0.096-1.584-0.416-2.301-0.955
		c-2.948-2.219-4.225-7.941-4.225-10.371c0-0.365-0.021-0.826-0.042-1.332c-0.133-3.02-0.28-6.438,1.937-7.442
		c0.342-0.156,0.682-0.228,1.01-0.237c-1.142-18.814,7.313-26.754,12.643-29.861c8.35-4.867,19.646-4.092,28.111,1.919
		c8.768,6.229,12.723,16.304,11.035,27.882c1.696,0.152,2.566,1.378,2.99,2.275c1.641,3.477,1.067,9.59-1.361,14.538
		c-0.859,1.752-2.23,2.736-3.35,3.222l-2.602,9.309c-0.542,1.84-4.018,4.273-7.208,6.178l2.214,16.368
		c0.068,0.506-0.086,1.012-0.422,1.395S65.1,94.219,64.588,94.219L64.588,94.219z"/>
	<path id="Fill-37" opacity="0.27" fill="#FDFEFE" enable-background="new    " d="M38.768,13.32
		c-0.729,0.449,2.609,3.553,3.758,4.232c3.088,1.826,18.186,4.951,11.421,21.964c-0.358,0.901-0.3,3.882,0,5.417
		c0.325,1.667,2.28,6.695,2.517,8.121c1.191,7.215-4.172,7.293,0.093,12.067c1.151,1.292,4.155,6.354,2.136,9.143
		c-0.701,0.964-0.577,0.681-1.889,2.085c-1.473,1.578-0.739,1.161-0.739,1.161l11.728-7.161c0.245-0.151,0.445-0.365,0.576-0.621
		l4.242-8.195c0.031-0.063,0.068-0.121,0.107-0.178l3.078-4.401c0.126-0.179,0.213-0.381,0.256-0.595l1.292-6.559
		c0.052-0.262,0.035-0.532-0.046-0.786l-0.551-4.897c-0.199-0.613-0.283-0.572-0.928-0.615l-0.721-0.514
		c-0.815-0.053-1.734,0.889-1.752,0.078l-0.202-8.693c-0.006-0.189-0.405-4.377-0.476-4.551l-2.67-6.824
		c-0.096-0.236-0.252-0.448-0.449-0.613L60.418,12.8c-0.193-0.162-0.424-0.274-0.669-0.329l-7.306-1.63
		c-0.209-0.046-0.428-0.05-0.639-0.011l-8.474,0.331c-0.19,0.035-0.374,0.105-0.54,0.208L38.768,13.32z"/>
	<path id="Fill-39" opacity="0.2" enable-background="new    " d="M40.407,78.08c0.026-5.227,1.759-2.071,2.858-1.357
		c3.709,2.408,9.836,2.94,13.734,0.256c0.059-0.039,3.633-2.576,3.634-2.508l0,0c1.142,10.435-10.946,6.232-13.196,13.271
		c-0.137,0.43-0.089,0.849-0.209,1.196c-0.42,1.216-1.664,1.956-2.955,1.946l-2.024-0.012c-0.979,0-3.626,0.159-3.206-0.467
		L40.407,78.08z"/>
	<path id="Fill-41" fill="#FEFEFE" d="M55.482,60.682H45.287l0.166-24.521c-0.572-0.665-1.935-1.995-3.846-2.277
		c-1.793-0.264-3.739,0.442-5.793,2.095c-0.759,0.61-1.872,0.495-2.488-0.261c-0.615-0.757-0.496-1.867,0.264-2.477
		c2.871-2.313,5.76-3.271,8.584-2.832c4.119,0.629,6.432,4.037,6.527,4.18L49,35.037L48.85,57.16h6.633
		c0.977,0,1.77,0.789,1.77,1.76C57.252,59.893,56.459,60.682,55.482,60.682"/>
</g>
</svg>
