<?xml version="1.0" encoding="utf-8"?>
<!-- Generator: Adobe Illustrator 16.0.0, SVG Export Plug-In . SVG Version: 6.00 Build 0)  -->
<!DOCTYPE svg PUBLIC "-//W3C//DTD SVG 1.1//EN" "http://www.w3.org/Graphics/SVG/1.1/DTD/svg11.dtd">
<svg version="1.1" id="Layer_1" xmlns="http://www.w3.org/2000/svg" xmlns:xlink="http://www.w3.org/1999/xlink" x="0px" y="0px"
	 width="100px" height="100px" viewBox="0 0 100 100" enable-background="new 0 0 100 100" xml:space="preserve">
<g id="Page-1">
	<g>
		<path id="Stroke-1" fill="#FEFEFE" d="M43.562,58.17c2.308,0,4.203-1.896,4.203-4.203v-4.49c0-2.309-1.895-4.203-4.203-4.203
			H10.896c-2.308,0-4.204,1.896-4.204,4.203v4.49c0,2.308,1.896,4.203,4.204,4.203H43.562z M43.562,61.902H10.896
			c-4.37,0-7.937-3.565-7.937-7.936v-4.49c0-4.369,3.567-7.935,7.937-7.935h32.666c4.37,0,7.936,3.565,7.936,7.935v4.49
			C51.498,58.337,47.932,61.902,43.562,61.902z"/>
		<path id="Stroke-3" fill="#FEFEFE" d="M48.23,23.245c0.381,0,0.69-0.309,0.69-0.692V9.423c0-0.383-0.308-0.69-0.69-0.69H6.229
			c-0.384,0-0.692,0.308-0.692,0.69v13.13c0,0.383,0.31,0.692,0.692,0.692H48.23z M48.23,26.978H6.229
			c-2.444,0-4.425-1.98-4.425-4.425V9.423C1.804,6.978,3.785,5,6.229,5H48.23c2.443,0,4.421,1.979,4.421,4.423v13.13
			C52.651,24.998,50.673,26.978,48.23,26.978z"/>
		<path id="Stroke-5" fill="#F9FCFD" d="M6.561,89.317H45.76l6.063-13.416H12.626L6.561,89.317z M46.322,93.05H5.212
			c-2.077,0-3.46-2.144-2.607-4.041l6.85-15.151c0.46-1.03,1.481-1.688,2.61-1.688h41.109c2.079,0,3.462,2.146,2.604,4.041
			l-6.851,15.16C48.464,92.394,47.444,93.05,46.322,93.05z"/>
		<path id="Stroke-7" fill="#FEFEFE" d="M93.291,79.864c0-6.473-5.244-11.718-11.716-11.718c-6.473,0-11.72,5.245-11.72,11.718
			c0,6.471,5.247,11.716,11.72,11.716C88.047,91.58,93.291,86.335,93.291,79.864z M97.023,79.864
			c0,8.531-6.916,15.448-15.448,15.448c-8.535,0-15.45-6.917-15.45-15.448c0-8.535,6.915-15.45,15.45-15.45
			C90.107,64.414,97.023,71.329,97.023,79.864z"/>
		<path id="Stroke-9" fill="#FEFEFE" d="M79.739,32.241h3.732V15.179c0-1.036-0.842-1.874-1.877-1.866l-30.82,0.212l0.024,3.732
			l28.94-0.2V32.241z"/>
		<polygon id="Stroke-11" fill="#FEFEFE" points="25.362,25.506 25.362,43.014 29.095,43.014 29.095,25.506 		"/>
		<polygon id="Stroke-13" fill="#FEFEFE" points="25.362,60.43 25.362,74.452 29.095,74.452 29.095,60.43 		"/>
		<path id="Stroke-15" fill="#FEFEFE" d="M90.074,52.71c0.444,0,0.802-0.36,0.802-0.804V34.908c0-0.444-0.357-0.802-0.802-0.802h-17
			c-0.441,0-0.802,0.359-0.802,0.802v16.999c0,0.443,0.36,0.804,0.802,0.804H90.074z M90.074,56.442h-17
			c-2.504,0-4.534-2.032-4.534-4.536V34.908c0-2.504,2.03-4.534,4.534-4.534h17c2.505,0,4.534,2.029,4.534,4.534v16.999
			C94.608,54.41,92.579,56.442,90.074,56.442z"/>
		<polygon id="Stroke-17" fill="#FEFEFE" points="80.196,54.576 80.196,66.28 83.929,66.28 83.929,54.576 		"/>
		<polygon id="Stroke-19" fill="#FEFEFE" points="51.498,84.475 67.268,84.475 67.268,80.742 51.498,80.742 		"/>
		<polygon id="Fill-21" opacity="0.5" fill="#FDFEFE" enable-background="new    " points="4.215,24.301 27.229,24.301 
			27.229,6.057 4.215,6.057 		"/>
		<polygon id="Fill-23" fill="#FDFEFE" fill-opacity="0.5" points="70.1,52.531 82.063,52.531 82.063,34.286 70.1,34.286 		"/>
		<polygon id="Fill-25" fill="#FDFEFE" fill-opacity="0.5" points="6.179,60.036 29.192,60.036 29.192,43.408 6.179,43.408 		"/>
		<polygon id="Fill-27" fill="#FDFEFE" fill-opacity="0.5" points="27.229,90.923 6.179,90.923 11.158,74.619 27.229,74.452 		"/>
		<polygon id="Fill-29" opacity="0.5" fill="#FDFEFE" enable-background="new    " points="66.195,82.608 81.575,94.699 
			81.575,65.029 71.505,68.267 		"/>
	</g>
</g>
</svg>
