<?xml version="1.0" encoding="utf-8"?>
<!-- Generator: Adobe Illustrator 16.0.0, SVG Export Plug-In . SVG Version: 6.00 Build 0)  -->
<!DOCTYPE svg PUBLIC "-//W3C//DTD SVG 1.1//EN" "http://www.w3.org/Graphics/SVG/1.1/DTD/svg11.dtd">
<svg version="1.1" id="Layer_1" xmlns="http://www.w3.org/2000/svg" xmlns:xlink="http://www.w3.org/1999/xlink" x="0px" y="0px"
	 width="100px" height="100px" viewBox="0 0 100 100" enable-background="new 0 0 100 100" xml:space="preserve">
<g>
	<polygon id="Fill-1" opacity="0.22" fill="#FDFEFE" enable-background="new    " points="24.051,65.398 24.562,77.908 
		18.877,77.653 16.098,72.919 18.176,68.082 	"/>
	<polygon id="Fill-3" opacity="0.22" fill="#FDFEFE" enable-background="new    " points="38.455,66.782 38.896,77.558 
		33.999,77.338 31.605,73.26 33.395,69.094 	"/>
	<path id="Fill-5" opacity="0.22" fill="#FDFEFE" enable-background="new    " d="M49.553,65.518l3.079,11.989l-4.419-0.387
		l-3.288-4.901l0.409-4.903l2.078-2.593C48.208,64.179,49.301,64.586,49.553,65.518"/>
	<path id="Fill-7" opacity="0.22" fill="#FDFEFE" enable-background="new    " d="M60.245,62.703l3.078,11.987l-4.419-0.386
		l-3.288-4.901l0.409-4.902l2.078-2.594C58.899,61.364,59.993,61.77,60.245,62.703"/>
	<path id="Fill-9" opacity="0.22" fill="#FDFEFE" enable-background="new    " d="M70.487,56.235l3.346,12.417
		c0.283,1.043-0.573,3.039-1.65,2.943l-2.782-1.23c-0.469-0.041-0.895-0.291-1.158-0.684l-3.562-5.313
		c-0.198-0.293-0.289-0.646-0.261-0.999l0.426-5.098c0.039-0.469,0.289-0.896,0.677-1.16l2.588-1.76
		C68.994,54.751,70.209,55.201,70.487,56.235"/>
	<polygon id="Fill-11" opacity="0.22" fill="#FDFEFE" enable-background="new    " points="7.242,52.794 12.997,49.157 
		22.378,51.317 39.89,50.145 58.734,45.81 70.771,39.746 73.725,35.226 72.447,30.19 47.736,29.1 48.859,26.125 54.377,23.047 
		67.192,23.429 77.839,26.147 83.588,31.054 83.876,36.888 79.866,42.307 68.26,48.255 47.234,55.043 28.596,57.064 17.386,56.366 	
		"/>
	<polygon id="Fill-13" opacity="0.22" fill="#FDFEFE" enable-background="new    " points="68.675,49.429 74.745,52.428 
		80.479,48.401 83.544,46.989 87.407,43.515 84.771,36.347 76.704,43.642 	"/>
	<g id="Group-17" transform="translate(0.000000, 0.458747)">
		<path id="Fill-15" fill="#FEFEFE" d="M10.847,55.865c9.634,2.732,19.392,2.541,29.14,0.973c10.919-1.76,21.621-4.409,31.862-8.725
			c4.413-1.859,8.588-4.007,11.862-7.833c0.924-1.08,2.666-0.762,3.14,0.579l0,0c0.248,0.701,0.063,1.497-0.496,1.986
			c-0.71,0.623-1.415,1.083-1.443,2.588c-0.022,1.072-0.856,1.943-1.928,1.884c-1.395-0.078-2.921-0.179-3.873,0.384
			c-1.167,0.693-1.956,2.027-2.862,3.354c-0.405,0.595-1.124,0.926-1.831,0.792c-4.821-0.919-8.771,0.893-9.796,6.278
			c-0.188,1-1.128,1.679-2.131,1.503c-1.061-0.187-2.11-0.331-3.044-0.067c-1.092,0.308-2.003,1.258-2.875,2.095
			c-0.483,0.465-1.181,0.62-1.819,0.421c-1.513-0.475-3.18-1.095-4.844-1.083c-1.912,0.014-2.866,1.313-3.54,2.842
			c-0.406,0.914-1.496,1.283-2.416,0.892c-3.542-1.51-6.234-1.238-9.206,0.915c-0.759,0.549-1.777,0.436-2.448-0.22
			c-4.448-4.344-13.004-3.288-16.17,4.74c-0.859-0.941-2.119-0.063-2.421-1.021c-1.282-4.053-3.478-9.595-4.776-13.931
			C10.063,55.489,10.312,55.713,10.847,55.865 M16.093,50.249c9.853,2.974,19.567,1.068,29.488-0.845
			c7.127-1.373,13.593-2.526,20.14-5.164c2.897-1.167,5.66-3.017,8.188-4.952c2.042-1.564,3.48-3.854,2.711-6.657
			c-0.738-2.697-3.04-4.002-5.52-4.265c-4.775-0.503-9.597-0.606-14.4-0.786c-1.972-0.075-3.953,0.078-6.629,0.146
			c2.551-1.825,4.445-3.906,7.106-4.112c5.66-0.442,11.902-0.088,16.67,1.589c2.562,0.899,4.986,1.76,7.247,3.737
			c3.105,2.715,3.651,5.331,1.258,8.753c-2.436,3.481-5.976,5.555-9.725,7.102c-14.568,6.01-29.643,9.99-45.495,10.348
			c-4.57,0.102-9.111-0.24-13.661-1.519c-1.896-0.534-1.687-3.374,0.268-3.615C14.467,49.92,15.243,49.993,16.093,50.249
			 M55.705,34.226c-1.512,0.417-2.838,4.503-3.431,3.095c-0.567-1.358-1.126-2.72-1.743-4.236c-0.493-1.208-0.047-3.115,1.255-3.134
			c4.929-0.068,9.758,0.401,14.148,0.539c2.164,0.067,4.402,0.289,6.439,1.06c0.72,0.272,1.468,2.148,1.296,3.019
			c-0.202,1.019-1.829,1.525-3.807,1.802C64.732,37.085,60.392,32.939,55.705,34.226 M91.45,57.19
			c-1.537-3.594-4.236-9.366-3.014-11.677C91.47,46.465,93.525,56.72,91.45,57.19 M88.821,57.051
			c1.69,4.453,1.013,6.289-3.131,8.061c-0.557,0.24-1.895-0.108-2.131-0.566c-1.476-2.858-2.851-5.781-4.045-8.768
			c-0.937-2.338-0.196-5.057,1.292-5.844c1.671-0.884,3.733-0.312,5.274,1.605c0.709,0.886,1.283,1.899,1.796,2.918
			C88.287,55.272,88.514,56.182,88.821,57.051 M79.936,68.114c-2.388,1.115-4.903,2.008-7.452,2.645
			c-0.645,0.158-1.804-0.822-2.373-1.556c-0.577-0.746-0.718-1.834-1.05-2.771c-0.195,0.015-1.212-5.347-1.182-8.04
			c0.022-2.029,1.355-3.34,3.433-3.729c2.012-0.378,4.15-0.662,5.214,1.312c1.663,3.09,2.829,6.22,4.203,9.449
			C80.956,65.961,81.433,67.413,79.936,68.114 M67.245,70.209c0.104,0.936-0.495,1.811-1.409,2.032
			c-1.275,0.313-2.491,0.609-3.71,0.896c-1.54,0.36-2.563-0.167-2.828-1.795c-0.317-1.948-0.804-3.904-0.788-5.857
			c0.009-1.066,0.724-2.85,1.434-3.021c1.107-0.27,3.162-0.602,4.077,0.169C66.074,64.358,66.913,67.222,67.245,70.209
			 M57.368,73.339c-0.038,1.419-1.894,2.389-4.167,2.523c-2.849,0.17-4.328-1.402-4.622-4.214c-0.189-1.809-0.201-3.698,0.115-5.481
			c0.472-2.668,2.014-3.073,4.455-1.86c1.671,0.829,2.502,2.446,3.15,5.075c0.036,0.146,0.225,0.834,0.267,0.977
			C57.037,71.973,57.413,71.698,57.368,73.339 M45.538,72.782c0.348,4.97-0.989,4.762-4.313,3.771
			c-0.783-0.233-2.683,0.725-3.702,0.393c-1.605-0.522-1.941-0.28-2.176-1.418c-0.407-1.98-0.591-4.261,0.008-6.134
			c0.76-2.365,3.148-2.939,5.527-2.751c2.152,0.17,3.449,1.469,4.336,3.942C45.275,70.978,45.473,71.876,45.538,72.782
			 M31.771,71.902c0.477,4.366-0.3,5.695-4.178,4.753c-1.483-0.362-2.906-0.851-4.352-0.363c-1.905,0.644-3.251,0.125-3.997-1.867
			c-1.129-3.017,0.726-6.986,3.797-8.131c4.003-1.492,6.912-0.221,8.389,4.015C31.485,70.558,31.696,71.222,31.771,71.902
			 M14.813,72.353c0.631,0.618,1.387,1.316,1.6,2.11c0.707,2.635,3.285,4.992,5.427,5.111c45.625,2.503,71.785-9.22,72.525-23.421
			c0.231-4.412-0.76-6.542-2.906-11.714c-0.239-0.579-0.467-1.785-0.704-2.365c-1.223-2.993-2.568-5.951-3.544-9.025
			c-1.77-5.578-5.823-8.482-11.122-9.992c-6.803-1.942-13.814-2.38-20.716-1.246c0,0-4.593,2.785-7.257,4.458
			c-1.872,1.176-1.199,1.779-0.971,2.976c0.597,3.139,1.344,3.675,2.489,6.643c0.97,2.516,2.081,3.605,4.591,2.625
			c4.331-1.693,14.926-1.217,14.579,1.121c0.067,0.345-1.149,1.078-2.038,1.488c-6.681,2.8-12.927,4.121-19.466,5.397
			c-10.397,2.032-20.557,3.983-31.061,0.853c-3.93-1.171-2.833-1.137-7.472,3.11c-2.932,2.683-2.932,2.683-2.573,3.838
			c1.809,5.809,3.628,11.604,5.666,16.705C12.203,71.884,14.119,71.671,14.813,72.353"/>
	</g>
	<path id="Fill-18" fill="#FEFEFE" d="M47.946,27.69l4.852,11.431c0,0,13.118-3.271,14.265-2.231
		c5.266,4.786,7.508-1.705,6.579-1.477l0.192-4.972l-3.652-1.117l-19.18-1.634H47.946z"/>
</g>
</svg>
