<?xml version="1.0" encoding="utf-8"?>
<!-- Generator: Adobe Illustrator 16.0.0, SVG Export Plug-In . SVG Version: 6.00 Build 0)  -->
<!DOCTYPE svg PUBLIC "-//W3C//DTD SVG 1.1//EN" "http://www.w3.org/Graphics/SVG/1.1/DTD/svg11.dtd">
<svg version="1.1" id="Layer_1" xmlns="http://www.w3.org/2000/svg" xmlns:xlink="http://www.w3.org/1999/xlink" x="0px" y="0px"
	 width="100px" height="100px" viewBox="0 0 100 100" enable-background="new 0 0 100 100" xml:space="preserve">
<g id="Page-1">
	<g id="LabOrder">
		<g id="Group">
			<path id="Fill-1" fill="#6BCBDF" d="M30.43,3.586h40.25H30.43z"/>
			<g id="Group-24" transform="translate(0.000000, 0.260192)">
				<g id="Group-4" transform="translate(19.230769, 0.000000)">
					<g id="Fill-2-Clipped">
						<path id="Fill-2" fill="#FEFEFE" d="M51.926,5.208h-40.25c-1.05,0-1.9-0.852-1.9-1.902c0-1.05,0.85-1.904,1.9-1.904h40.25
							c1.049,0,1.901,0.854,1.901,1.904C53.828,4.356,52.975,5.208,51.926,5.208"/>
					</g>
				</g>
				<path id="Fill-5" opacity="0.27" fill="#FDFEFE" enable-background="new    " d="M23.697,70.72l5.246-14.584
					c0,0,4.529,4.727,10.254,4.727c4.031,0,6.606-4.336,8.06-4.975c1.454-0.641,3.166-1.799,5.773-1.068
					c3.404,0.957,7.955,5.533,9.784,5.934c5.565,1.215,7.302-3.318,7.302-3.318s17.275,25.822,17.462,27.293
					c0.778,6.158-4.403-9.729-7.319-10.715c-0.375-0.127,2.867,3.645-4.246,4.482c-2.504,0.293-7.196-5.59-11-5.594
					c-3.768-0.004-7.27,5.234-12,5.721c-7.99,0.82-6.99-8.301-17.89-1.363c0,0-0.929,0.867-4.571-0.33
					c-1.521-0.5-3.16-2.596-5.869-2.662C20.782,74.175,18.836,74.89,23.697,70.72"/>
				<path id="Fill-7" opacity="0.2" enable-background="new    " d="M80.999,77.384c0,0-2.732,3.752-7.115,0.961
					c-4.092-2.604-7.546-7.115-12.943-2.619c-1.547,1.287-3.822,4.033-8.989,3.791c-3.602-0.168-5.583-3.455-8.359-3.891
					c-5.831-0.912-7.431,5.9-13.756,1.502c-5.086-3.537-8.181-1.793-8.181-1.793l-3.965,6.432l-3.787,5.828
					c-0.713,1.057-0.781,2.992-0.781,4.268l0.6,1.143c1.175,2.393,2.888,2.096,5.544,2.324c4.145,0.354,11.15,0.232,12.46,0.1
					c1.661-0.168,37.046,0.42,47.798,0.48c1.673,0.01,4.838-0.025,6.073-1.523l1.042-1.842c0.317-2.986,1.021-5.5,0.49-6.938
					L80.999,77.384z"/>
				<path id="Fill-9" fill="#6BCBDF" d="M28.507,58.433h14.859H28.507z"/>
				<path id="Fill-11" fill="#FEFEFE" d="M43.284,60.189h-14.86c-1.015,0-1.84-0.824-1.84-1.84s0.825-1.84,1.84-1.84h14.86
					c1.015,0,1.84,0.824,1.84,1.84S44.299,60.189,43.284,60.189"/>
				<path id="Fill-13" fill="#6BCBDF" d="M22.738,69.97h14.86H22.738z"/>
				<path id="Fill-15" fill="#FEFEFE" d="M37.515,71.728H22.655c-1.016,0-1.84-0.824-1.84-1.84s0.825-1.84,1.84-1.84h14.859
					c1.016,0,1.84,0.824,1.84,1.84S38.53,71.728,37.515,71.728"/>
				<path id="Fill-17" fill="#6BCBDF" d="M16.969,79.586h14.859H16.969z"/>
				<path id="Fill-19" fill="#FEFEFE" d="M31.746,81.343h-14.86c-1.015,0-1.84-0.824-1.84-1.84s0.825-1.84,1.84-1.84h14.86
					c1.015,0,1.84,0.824,1.84,1.84S32.761,81.343,31.746,81.343"/>
				<g id="Group-23">
					<path id="Fill-21" fill="#FEFEFE" d="M13.307,87.046c-0.19,0.594-0.85,3.002,0.327,4.705c1.277,1.846,4.338,2.232,6.683,2.232
						c9.766,0,57.197,0.393,61.154,0.424c0.758-0.229,3.613-1.219,4.91-3.477c0.762-1.33,0.865-2.881,0.316-4.744
						C85.702,82.8,71.745,60.884,62.606,46.98l-0.302-0.459V4.42H39.583v40.977L13.307,87.046z M81.926,98.091l-0.228-0.002
						c-0.512-0.004-51.255-0.424-61.382-0.424c-4.709,0-7.982-1.295-9.73-3.852c-2.438-3.566-0.737-8.051-0.662-8.242l0.158-0.313
						l25.821-40.925V0.74h30.083v44.679c3.442,5.247,22.822,34.901,24.242,39.731c0.838,2.848,0.611,5.418-0.671,7.637
						c-2.3,3.98-7.204,5.201-7.411,5.254L81.926,98.091z"/>
				</g>
			</g>
		</g>
	</g>
</g>
</svg>
