<?xml version="1.0" encoding="utf-8"?>
<!-- Generator: Adobe Illustrator 13.0.0, SVG Export Plug-In . SVG Version: 6.00 Build 14948)  -->
<!DOCTYPE svg PUBLIC "-//W3C//DTD SVG 1.1//EN" "http://www.w3.org/Graphics/SVG/1.1/DTD/svg11.dtd">
<svg version="1.1" id="Layer_1" xmlns="http://www.w3.org/2000/svg" xmlns:xlink="http://www.w3.org/1999/xlink" x="0px" y="0px"
	 width="70px" height="70px" viewBox="0 0 70 70" enable-background="new 0 0 70 70" xml:space="preserve">
<g id="Shape_1">
	<g>
		<path fill="#FFFFFF" d="M7590.883,7560.916h-36.342c-1.361,0-2.465,1.102-2.465,2.463v38.734c0,1.361,1.104,2.465,2.465,2.465
			h36.342c1.363,0,2.465-1.104,2.465-2.465v-38.734C7593.348,7562.018,7592.246,7560.916,7590.883,7560.916z M7591.371,7602.623
			h-37.297v-39.668h37.297V7602.623z"/>
	</g>
</g>
<g id="Shape_1_copy">
	<g>
		<path fill="#FFFFFF" d="M7540.758,7552.75v43.691c0,1.582,1.283,2.865,2.867,2.865h5.441v-2.275h-5.984v-44.773h36.201v4.293
			h2.297v-3.801c0-1.316-0.895-2.418-2.107-2.752h-36.605C7541.654,7550.332,7540.758,7551.432,7540.758,7552.75z"/>
	</g>
</g>
<g id="Shape_2">
	<g>
		<path fill="#FFFFFF" d="M7563.787,7591.18h1.834v-1.836h-1.834V7591.18z M7567.531,7591.18h1.834v-1.836h-1.834V7591.18z
			 M7571.275,7589.344v1.836h1.836v-1.836H7571.275z"/>
	</g>
</g>
<g id="Shape_3">
	<g>
		<path fill="#FFFFFF" d="M7577.236,7578.23h-10.705l3.912-3.93l-1.309-1.309l-6.109,6.158l6.109,6.162l1.281-1.279l-3.893-4.092
			h10.297c0,0,3.961,0.207,4.584,4.387c-0.182,4.508-4.135,5.016-4.135,5.016h-2.342l-0.002,1.762h2.191
			c0,0,5.818-0.174,6.137-6.529C7582.764,7578.539,7577.236,7578.23,7577.236,7578.23z"/>
	</g>
</g>
<g id="Shape_1_1_">
	<g>
		<path fill="#FFFFFF" d="M6182.883,6163.916h-36.342c-1.361,0-2.465,1.102-2.465,2.463v38.734c0,1.361,1.104,2.465,2.465,2.465
			h36.342c1.363,0,2.465-1.104,2.465-2.465v-38.734C6185.348,6165.018,6184.246,6163.916,6182.883,6163.916z M6183.371,6205.623
			h-37.297v-39.668h37.297V6205.623z"/>
	</g>
</g>
<g id="Shape_1_copy_1_">
	<g>
		<path fill="#FFFFFF" d="M6132.758,6155.75v43.691c0,1.582,1.283,2.865,2.867,2.865h5.441v-2.275h-5.984v-44.773h36.201v4.293
			h2.297v-3.801c0-1.316-0.895-2.418-2.107-2.752h-36.605C6133.654,6153.332,6132.758,6154.432,6132.758,6155.75z"/>
	</g>
</g>
<g id="Shape_2_1_">
	<g>
		<path fill="#FFFFFF" d="M6155.787,6194.18h1.834v-1.836h-1.834V6194.18z M6159.531,6194.18h1.834v-1.836h-1.834V6194.18z
			 M6163.275,6192.344v1.836h1.836v-1.836H6163.275z"/>
	</g>
</g>
<g id="Shape_3_1_">
	<g>
		<path fill="#FFFFFF" d="M6169.236,6181.23h-10.705l3.912-3.93l-1.309-1.309l-6.109,6.158l6.109,6.162l1.281-1.279l-3.893-4.092
			h10.297c0,0,3.961,0.207,4.584,4.387c-0.182,4.508-4.135,5.016-4.135,5.016h-2.342l-0.002,1.762h2.191
			c0,0,5.818-0.174,6.137-6.529C6174.764,6181.539,6169.236,6181.23,6169.236,6181.23z"/>
	</g>
</g>
<g id="Shape_1_2_">
	<g>
		<path fill="#FFFFFF" d="M6198.883,6164.916h-36.342c-1.361,0-2.465,1.102-2.465,2.463v38.734c0,1.361,1.104,2.465,2.465,2.465
			h36.342c1.363,0,2.465-1.104,2.465-2.465v-38.734C6201.348,6166.018,6200.246,6164.916,6198.883,6164.916z M6199.371,6206.623
			h-37.297v-39.668h37.297V6206.623z"/>
	</g>
</g>
<g id="Shape_1_copy_2_">
	<g>
		<path fill="#FFFFFF" d="M6148.758,6156.75v43.691c0,1.582,1.283,2.865,2.867,2.865h5.441v-2.275h-5.984v-44.773h36.201v4.293
			h2.297v-3.801c0-1.316-0.895-2.418-2.107-2.752h-36.605C6149.654,6154.332,6148.758,6155.432,6148.758,6156.75z"/>
	</g>
</g>
<g id="Shape_2_2_">
	<g>
		<path fill="#FFFFFF" d="M6171.787,6195.18h1.834v-1.836h-1.834V6195.18z M6175.531,6195.18h1.834v-1.836h-1.834V6195.18z
			 M6179.275,6193.344v1.836h1.836v-1.836H6179.275z"/>
	</g>
</g>
<g id="Shape_3_2_">
	<g>
		<path fill="#FFFFFF" d="M6185.236,6182.23h-10.705l3.912-3.93l-1.309-1.309l-6.109,6.158l6.109,6.162l1.281-1.279l-3.893-4.092
			h10.297c0,0,3.961,0.207,4.584,4.387c-0.182,4.508-4.135,5.016-4.135,5.016h-2.342l-0.002,1.762h2.191
			c0,0,5.818-0.174,6.137-6.529C6190.764,6182.539,6185.236,6182.23,6185.236,6182.23z"/>
	</g>
</g>
<g>
	<g>
		<g>
			<path fill="#EA6225" stroke="#EA6225" stroke-width="0.5" d="M38.371,33.043c0.166,0.326,0.499,0.515,0.842,0.515
				c0.143,0,0.29-0.034,0.427-0.104c0.056-0.028,5.602-2.846,8.337-3.709c0.496-0.157,0.771-0.688,0.613-1.183
				c-0.156-0.496-0.682-0.772-1.184-0.615c-2.88,0.911-8.389,3.709-8.622,3.829C38.319,32.011,38.136,32.579,38.371,33.043z"/>
			<path fill="#EA6225" stroke="#EA6225" stroke-width="0.5" d="M39.213,22.251c0.143,0,0.29-0.033,0.427-0.103
				c0.056-0.028,5.602-2.846,8.337-3.71c0.496-0.157,0.771-0.687,0.613-1.183c-0.156-0.496-0.682-0.772-1.184-0.615
				c-2.88,0.911-8.389,3.71-8.622,3.828c-0.464,0.236-0.648,0.803-0.413,1.268C38.537,22.062,38.87,22.251,39.213,22.251z"/>
			<path fill="#EA6225" stroke="#EA6225" stroke-width="0.5" d="M61.826,20.367c-0.521,0-0.941,0.422-0.941,0.941v36.749
				c0,1.559-1.27,2.828-2.828,2.828H35.442v-2.169c1.374-0.48,4.952-1.602,8.479-1.602c8.209,0,13.783,1.818,13.838,1.837
				c0.283,0.095,0.601,0.048,0.849-0.13c0.245-0.177,0.391-0.462,0.391-0.765V16.597c0-0.442-0.305-0.825-0.738-0.919
				c0,0-0.738-0.165-2.001-0.397c-0.51-0.094-1.003,0.245-1.097,0.755c-0.094,0.512,0.244,1.003,0.756,1.098
				c0.481,0.088,0.885,0.167,1.195,0.229v39.442c-2.135-0.56-6.876-1.575-13.192-1.575c-4.105,0-8.138,1.35-9.385,1.807
				c-1.109-0.491-4.462-1.807-8.517-1.807c-6.49,0-11.837,1.072-14.134,1.614V17.327c1.882-0.463,7.439-1.672,14.134-1.672
				c3.436,0,6.382,1.069,7.538,1.553v37.081c0,0.339,0.183,0.652,0.478,0.82c0.295,0.167,0.659,0.163,0.95-0.013
				c0.094-0.056,9.429-5.632,17.715-8.394c0.386-0.13,0.646-0.488,0.646-0.895V7.174c0-0.309-0.151-0.599-0.406-0.774
				c-0.253-0.176-0.576-0.217-0.868-0.108c-7.539,2.828-15.167,7.575-15.244,7.622c-0.44,0.276-0.576,0.857-0.299,1.299
				c0.275,0.441,0.855,0.576,1.297,0.299c0.07-0.044,6.707-4.173,13.636-6.959v36.581c-6.432,2.235-13.147,5.885-16.019,7.519
				V16.597c0-0.357-0.203-0.683-0.521-0.843c-0.162-0.08-4.024-1.984-8.902-1.984c-8.515,0-15.06,1.842-15.335,1.921
				C10.28,15.807,10,16.177,10,16.597v41.459c0,0.296,0.14,0.575,0.375,0.753c0.166,0.126,0.365,0.189,0.568,0.189
				c0.087,0,0.174-0.012,0.258-0.037c0.065-0.018,6.581-1.848,14.818-1.848c3.445,0,6.389,1.073,7.538,1.555v2.216H10.943
				c-1.559,0-2.827-1.27-2.827-2.828V21.309c0-0.52-0.422-0.942-0.942-0.942c-0.52,0-0.942,0.422-0.942,0.942v36.748
				c0,2.598,2.113,4.712,4.711,4.712h47.114c2.598,0,4.712-2.114,4.712-4.712V21.309C62.768,20.789,62.347,20.367,61.826,20.367z"/>
			<path fill="#EA6225" stroke="#EA6225" stroke-width="0.5" d="M38.371,27.39c0.166,0.326,0.499,0.515,0.842,0.515
				c0.143,0,0.29-0.033,0.427-0.103c0.056-0.028,5.602-2.845,8.337-3.71c0.496-0.157,0.771-0.687,0.613-1.182
				c-0.156-0.495-0.682-0.771-1.184-0.615c-2.88,0.912-8.389,3.71-8.622,3.829C38.319,26.358,38.136,26.925,38.371,27.39z"/>
			<path fill="#EA6225" stroke="#EA6225" stroke-width="0.5" d="M38.371,38.697c0.166,0.326,0.499,0.515,0.842,0.515
				c0.143,0,0.29-0.033,0.427-0.103c0.056-0.029,5.602-2.846,8.337-3.71c0.496-0.157,0.771-0.687,0.613-1.182
				c-0.156-0.496-0.682-0.772-1.184-0.615c-2.88,0.911-8.389,3.709-8.622,3.828C38.319,37.665,38.136,38.233,38.371,38.697z"/>
			<path fill="#EA6225" stroke="#EA6225" stroke-width="0.5" d="M29.061,23.719c-5.818-1.365-12.43,0.375-12.708,0.449
				c-0.502,0.134-0.801,0.651-0.667,1.154c0.113,0.421,0.494,0.698,0.909,0.698c0.082,0,0.163-0.01,0.245-0.032
				c0.063-0.018,6.429-1.692,11.791-0.435c0.503,0.118,1.014-0.196,1.133-0.703C29.883,24.345,29.568,23.837,29.061,23.719z"/>
			<path fill="#EA6225" stroke="#EA6225" stroke-width="0.5" d="M29.061,29.373c-5.818-1.365-12.43,0.374-12.708,0.448
				c-0.502,0.135-0.801,0.651-0.667,1.154c0.113,0.421,0.494,0.698,0.909,0.698c0.082,0,0.163-0.01,0.245-0.032
				c0.063-0.018,6.429-1.692,11.791-0.434c0.503,0.118,1.014-0.196,1.133-0.703C29.883,29.998,29.568,29.491,29.061,29.373z"/>
			<path fill="#EA6225" stroke="#EA6225" stroke-width="0.5" d="M38.371,44.351c0.166,0.326,0.499,0.515,0.842,0.515
				c0.143,0,0.29-0.033,0.427-0.103c0.056-0.029,5.602-2.846,8.337-3.71c0.496-0.157,0.771-0.687,0.613-1.183
				c-0.156-0.495-0.682-0.771-1.184-0.615c-2.88,0.911-8.389,3.71-8.622,3.829C38.319,43.319,38.136,43.887,38.371,44.351z"/>
			<path fill="#EA6225" stroke="#EA6225" stroke-width="0.5" d="M29.061,35.026c-5.818-1.365-12.43,0.373-12.708,0.448
				c-0.502,0.136-0.801,0.651-0.667,1.155c0.113,0.421,0.494,0.698,0.909,0.698c0.082,0,0.163-0.012,0.245-0.033
				c0.063-0.018,6.429-1.691,11.791-0.435c0.503,0.118,1.014-0.195,1.133-0.702C29.883,35.651,29.568,35.145,29.061,35.026z"/>
			<path fill="#EA6225" stroke="#EA6225" stroke-width="0.5" d="M29.061,46.333c-5.818-1.365-12.43,0.374-12.708,0.448
				c-0.502,0.135-0.801,0.651-0.667,1.155c0.113,0.421,0.494,0.699,0.909,0.699c0.082,0,0.163-0.013,0.245-0.033
				c0.063-0.019,6.429-1.692,11.791-0.435c0.503,0.117,1.014-0.195,1.133-0.703C29.883,46.959,29.568,46.452,29.061,46.333z"/>
			<path fill="#EA6225" stroke="#EA6225" stroke-width="0.5" d="M29.061,40.68c-5.818-1.365-12.43,0.373-12.708,0.449
				c-0.502,0.134-0.801,0.65-0.667,1.153c0.113,0.422,0.494,0.699,0.909,0.699c0.082,0,0.163-0.011,0.245-0.033
				c0.063-0.018,6.429-1.692,11.791-0.434c0.503,0.117,1.014-0.197,1.133-0.704C29.883,41.306,29.568,40.798,29.061,40.68z"/>
		</g>
	</g>
</g>
</svg>
