<?xml version="1.0" encoding="utf-8"?>
<!-- Generator: Adobe Illustrator 16.0.0, SVG Export Plug-In . SVG Version: 6.00 Build 0)  -->
<!DOCTYPE svg PUBLIC "-//W3C//DTD SVG 1.1//EN" "http://www.w3.org/Graphics/SVG/1.1/DTD/svg11.dtd">
<svg version="1.1" id="Layer_1" xmlns="http://www.w3.org/2000/svg" xmlns:xlink="http://www.w3.org/1999/xlink" x="0px" y="0px"
	 width="100px" height="100px" viewBox="0 0 100 100" enable-background="new 0 0 100 100" xml:space="preserve">
<g>
	<circle fill="none" stroke="#E86223" stroke-width="2.3" cx="50" cy="50" r="36.476"/>
	<line fill="none" stroke="#E86223" stroke-width="9" x1="29.748" y1="50" x2="70.253" y2="50"/>
	<line fill="none" stroke="#E86223" stroke-width="9" x1="50" y1="69.86" x2="50" y2="30.14"/>
</g>
</svg>
