<?xml version="1.0" encoding="utf-8"?>
<!-- Generator: Adobe Illustrator 13.0.0, SVG Export Plug-In . SVG Version: 6.00 Build 14948)  -->
<!DOCTYPE svg PUBLIC "-//W3C//DTD SVG 1.1//EN" "http://www.w3.org/Graphics/SVG/1.1/DTD/svg11.dtd">
<svg version="1.1" id="Layer_1" xmlns="http://www.w3.org/2000/svg" xmlns:xlink="http://www.w3.org/1999/xlink" x="0px" y="0px"
	 width="100px" height="100px" viewBox="0 0 100 100" enable-background="new 0 0 100 100" xml:space="preserve">
<circle fill="none" stroke="#38A0F1" stroke-width="4" stroke-miterlimit="10" cx="50" cy="50" r="42.667"/>
<line fill="none" stroke="#38A0F1" stroke-width="4" stroke-linecap="round" stroke-miterlimit="10" x1="67.854" y1="50" x2="32.146" y2="50"/>
</svg>
