<?xml version="1.0" encoding="utf-8"?>
<!-- Generator: Adobe Illustrator 16.0.0, SVG Export Plug-In . SVG Version: 6.00 Build 0)  -->
<!DOCTYPE svg PUBLIC "-//W3C//DTD SVG 1.1//EN" "http://www.w3.org/Graphics/SVG/1.1/DTD/svg11.dtd">
<svg version="1.1" id="Layer_1" xmlns="http://www.w3.org/2000/svg" xmlns:xlink="http://www.w3.org/1999/xlink" x="0px" y="0px"
	 width="100px" height="100px" viewBox="0 0 100 100" enable-background="new 0 0 100 100" xml:space="preserve">
<g>
	<path fill="#FFFFFF" d="M73.414,53.171v30.828H16.302V21.653h35.341l3-4.036H17.691c-2.996,0-5.425,2.429-5.425,5.425V82.61
		c0,2.995,2.429,5.424,5.425,5.424h54.334c2.994,0,5.424-2.429,5.424-5.424V49.171L73.414,53.171z"/>
	<g>
		<path fill="none" stroke="#FFFFFF" stroke-width="4" d="M72.509,14.578c3.483-3.482,9.13-3.482,12.612,0
			c3.482,3.483,3.483,9.13,0,12.613"/>
		<polyline fill="none" stroke="#FFFFFF" stroke-width="4" points="72.509,14.578 40.773,46.313 34.886,64.503 53.386,58.927 
			85.121,27.19 		"/>
	</g>
</g>
</svg>
