<?xml version="1.0" encoding="utf-8"?>
<!-- Generator: Adobe Illustrator 13.0.0, SVG Export Plug-In . SVG Version: 6.00 Build 14948)  -->
<!DOCTYPE svg PUBLIC "-//W3C//DTD SVG 1.1//EN" "http://www.w3.org/Graphics/SVG/1.1/DTD/svg11.dtd">
<svg version="1.1" id="Layer_1" xmlns="http://www.w3.org/2000/svg" xmlns:xlink="http://www.w3.org/1999/xlink" x="0px" y="0px"
	 width="120px" height="120px" viewBox="0 0 120 120" enable-background="new 0 0 120 120" xml:space="preserve">
<g display="none">
	<circle display="inline" fill="none" stroke="#FFFFFF" stroke-width="3" stroke-miterlimit="10" cx="60" cy="60" r="50"/>
	<g display="inline">
		
			<line fill="none" stroke="#FFFFFF" stroke-width="3" stroke-linecap="round" stroke-miterlimit="10" x1="50" y1="60" x2="70" y2="40"/>
		
			<line fill="none" stroke="#FFFFFF" stroke-width="3" stroke-linecap="round" stroke-miterlimit="10" x1="50" y1="60" x2="70" y2="80"/>
	</g>
</g>
<g display="none">
	<circle display="inline" fill="none" stroke="#FFFFFF" stroke-width="3" stroke-miterlimit="10" cx="60" cy="60" r="50"/>
	<g display="inline">
		
			<line fill="none" stroke="#FFFFFF" stroke-width="3" stroke-linecap="round" stroke-miterlimit="10" x1="70" y1="60" x2="50" y2="80"/>
		
			<line fill="none" stroke="#FFFFFF" stroke-width="3" stroke-linecap="round" stroke-miterlimit="10" x1="70" y1="60" x2="50" y2="40"/>
	</g>
</g>
<g display="none">
	<path display="inline" fill="none" stroke="#FFFFFF" stroke-width="3" stroke-miterlimit="10" d="M105.284,97.631
		c0,6.006-4.864,10.869-10.871,10.869H25.586c-6.006,0-10.87-4.863-10.87-10.869v-68.83c0-6.005,4.864-10.87,10.87-10.87h68.827
		c6.007,0,10.871,4.865,10.871,10.87V97.631z"/>
	
		<line display="inline" fill="none" stroke="#FFFFFF" stroke-width="3" stroke-miterlimit="10" x1="14.716" y1="34.716" x2="105.284" y2="34.716"/>
	
		<line display="inline" fill="none" stroke="#FFFFFF" stroke-width="3" stroke-linecap="round" stroke-miterlimit="10" x1="37.358" y1="11.5" x2="37.358" y2="24.005"/>
	
		<line display="inline" fill="none" stroke="#FFFFFF" stroke-width="4" stroke-linecap="round" stroke-miterlimit="10" x1="31.105" y1="54.192" x2="38.178" y2="54.192"/>
	
		<line display="inline" fill="none" stroke="#FFFFFF" stroke-width="4" stroke-linecap="round" stroke-miterlimit="10" x1="57.591" y1="54.192" x2="64.664" y2="54.192"/>
	
		<line display="inline" fill="none" stroke="#FFFFFF" stroke-width="4" stroke-linecap="round" stroke-miterlimit="10" x1="84.077" y1="54.192" x2="91.146" y2="54.192"/>
	
		<line display="inline" fill="none" stroke="#FFFFFF" stroke-width="4" stroke-linecap="round" stroke-miterlimit="10" x1="31.105" y1="73.341" x2="38.178" y2="73.341"/>
	
		<line display="inline" fill="none" stroke="#FFFFFF" stroke-width="4" stroke-linecap="round" stroke-miterlimit="10" x1="57.591" y1="73.341" x2="64.664" y2="73.341"/>
	
		<line display="inline" fill="none" stroke="#FFFFFF" stroke-width="4" stroke-linecap="round" stroke-miterlimit="10" x1="84.077" y1="73.283" x2="91.146" y2="73.283"/>
	
		<line display="inline" fill="none" stroke="#FFFFFF" stroke-width="4" stroke-linecap="round" stroke-miterlimit="10" x1="31.105" y1="92.496" x2="38.178" y2="92.496"/>
	
		<line display="inline" fill="none" stroke="#FFFFFF" stroke-width="4" stroke-linecap="round" stroke-miterlimit="10" x1="57.591" y1="92.496" x2="64.664" y2="92.496"/>
	
		<line display="inline" fill="none" stroke="#FFFFFF" stroke-width="3" stroke-linecap="round" stroke-miterlimit="10" x1="82.643" y1="11.5" x2="82.643" y2="24.005"/>
</g>
<g display="none">
	<circle display="inline" fill="none" stroke="#FFFFFF" stroke-width="3" stroke-miterlimit="10" cx="60" cy="60" r="50"/>
	
		<path display="inline" fill="none" stroke="#FFFFFF" stroke-width="3" stroke-linecap="round" stroke-linejoin="round" stroke-miterlimit="10" d="
		M60.666,42.533c0,0,12.563,0-0.95,0c-13.512,0-24.466,0-24.466,0s10.954,0,24.466,0C73.229,42.533,60.666,42.533,60.666,42.533z"/>
	
		<path display="inline" fill="none" stroke="#FFFFFF" stroke-width="3" stroke-linecap="round" stroke-linejoin="round" stroke-miterlimit="10" d="
		M59.716,42.533c-13.512,0-24.466,0-24.466,0S46.204,42.533,59.716,42.533c13.513,0,0.95,0,0.95,0"/>
	
		<path display="inline" fill="none" stroke="#FFFFFF" stroke-width="3" stroke-linecap="round" stroke-linejoin="round" stroke-miterlimit="10" d="
		M59.716,42.533c-13.512,0-24.466,0-24.466,0S46.204,42.533,59.716,42.533c13.513,0,0.95,0,0.95,0"/>
	
		<path display="inline" fill="none" stroke="#FFFFFF" stroke-width="3" stroke-linecap="round" stroke-linejoin="bevel" stroke-miterlimit="10" d="
		M82.807,42.533c-5.273,0-9.549,0-9.549,0S77.532,42.533,82.807,42.533c5.273,0,0.371,0,0.371,0"/>
	
		<path display="inline" fill="none" stroke="#FFFFFF" stroke-width="3" stroke-linecap="round" stroke-linejoin="round" stroke-miterlimit="10" d="
		M66.836,39.88c0,3.938,0,7.129,0,7.129S66.836,43.817,66.836,39.88s0-0.277,0-0.277"/>
	<g display="inline">
		<path fill="none" stroke="#FFFFFF" stroke-width="3" stroke-linecap="round" stroke-linejoin="round" stroke-miterlimit="10" d="
			M60.784,59.533c13.512,0,24.466,0,24.466,0S74.296,59.533,60.784,59.533c-13.512,0-0.95,0-0.95,0"/>
		<path fill="none" stroke="#FFFFFF" stroke-width="3" stroke-linecap="round" stroke-linejoin="bevel" stroke-miterlimit="10" d="
			M37.694,59.533c5.274,0,9.548,0,9.548,0S42.968,59.533,37.694,59.533c-5.273,0-0.371,0-0.371,0"/>
		<path fill="none" stroke="#FFFFFF" stroke-width="3" stroke-linecap="round" stroke-linejoin="round" stroke-miterlimit="10" d="
			M53.664,56.88c0,3.938,0,7.13,0,7.13S53.664,60.816,53.664,56.88c0-3.937,0-0.277,0-0.277"/>
	</g>
	
		<path display="inline" fill="none" stroke="#FFFFFF" stroke-width="3" stroke-linecap="round" stroke-linejoin="round" stroke-miterlimit="10" d="
		M59.716,76.945c-13.512,0-24.466,0-24.466,0S46.204,76.945,59.716,76.945c13.513,0,0.95,0,0.95,0"/>
	
		<path display="inline" fill="none" stroke="#FFFFFF" stroke-width="3" stroke-linecap="round" stroke-linejoin="bevel" stroke-miterlimit="10" d="
		M82.807,76.945c-5.273,0-9.549,0-9.549,0S77.532,76.945,82.807,76.945c5.273,0,0.371,0,0.371,0"/>
	
		<path display="inline" fill="none" stroke="#FFFFFF" stroke-width="3" stroke-linecap="round" stroke-linejoin="round" stroke-miterlimit="10" d="
		M66.836,74.293c0,3.938,0,7.13,0,7.13S66.836,78.23,66.836,74.293s0-0.275,0-0.275"/>
</g>
<g>
	<path fill="#EA6225" d="M39.862,58.133c0,1.069-0.808,1.687-1.901,1.687h-3.303v-3.397h3.303
		C39.054,56.423,39.862,57.041,39.862,58.133z"/>
	<path fill="#EA6225" d="M52.528,56.423h-2.59v8.72h2.567c2.78,0,4.396-2.02,4.396-4.371C56.9,58.324,55.427,56.423,52.528,56.423z
		 M52.528,56.423h-2.59v8.72h2.567c2.78,0,4.396-2.02,4.396-4.371C56.9,58.324,55.427,56.423,52.528,56.423z M76.182,47.084H27.473
		c-1.54,0-2.8,1.221-2.847,2.756c-0.004,0.029-0.004,0.062-0.004,0.095v20.27c0,0.033,0,0.066,0.004,0.095
		c0.047,1.535,1.307,2.757,2.847,2.757h48.708c1.577,0,2.852-1.272,2.852-2.852v-20.27C79.032,48.358,77.759,47.084,76.182,47.084z
		 M38.508,63.385h-3.85v5.322h-4.087V52.858h7.937c3.564,0,5.513,2.4,5.513,5.275C44.021,60.984,42.072,63.385,38.508,63.385z
		 M52.528,68.707h-6.677V52.858h6.654c4.99,0,8.578,2.994,8.578,7.914C61.082,65.689,57.494,68.707,52.528,68.707z M74.746,56.423
		h-7.533v2.471h7.366v3.565h-7.366v6.248h-4.087V52.858h11.62V56.423z M52.528,56.423h-2.59v8.72h2.567
		c2.78,0,4.396-2.02,4.396-4.371C56.9,58.324,55.427,56.423,52.528,56.423z"/>
	
		<polyline fill="none" stroke="#EA6225" stroke-width="3" stroke-linecap="round" stroke-linejoin="round" stroke-miterlimit="10" points="
		32.967,77.486 32.967,98.791 49.966,98.791 	"/>
	
		<polyline fill="none" stroke="#EA6225" stroke-width="3" stroke-linecap="round" stroke-linejoin="round" stroke-miterlimit="10" points="
		32.967,44.247 32.967,15 81.697,15 92.943,25.555 92.943,98.791 75.995,98.791 	"/>
	<polyline fill="#EA6225" stroke="#EA6225" stroke-width="3" stroke-linejoin="round" stroke-miterlimit="10" points="76.184,15 
		76.184,30.642 91.307,30.642 92.943,30.642 92.943,25.555 83.165,16.376 80.73,15 	"/>
	<g>
		<path fill="#EA6225" d="M70.295,89.591c0,1.65-1.35,3-3,3h-8.881c-1.65,0-3-1.35-3-3v-9.774c0-1.65,1.35-3,3-3h8.881
			c1.65,0,3,1.35,3,3V89.591z"/>
	</g>
	
		<polygon fill="#EA6225" stroke="#EA6225" stroke-width="2" stroke-linecap="round" stroke-linejoin="round" stroke-miterlimit="10" points="
		48.419,91.385 62.955,111 77.553,91.385 	"/>
</g>
</svg>
