<?xml version="1.0" encoding="utf-8"?>
<!-- Generator: Adobe Illustrator 16.0.0, SVG Export Plug-In . SVG Version: 6.00 Build 0)  -->
<!DOCTYPE svg PUBLIC "-//W3C//DTD SVG 1.1//EN" "http://www.w3.org/Graphics/SVG/1.1/DTD/svg11.dtd">
<svg version="1.1" id="Layer_1" xmlns="http://www.w3.org/2000/svg" xmlns:xlink="http://www.w3.org/1999/xlink" x="0px" y="0px"
	 width="100px" height="100px" viewBox="0 0 100 100" enable-background="new 0 0 100 100" xml:space="preserve">
<g>
	<path fill="#ED1A1A" d="M85.458,41.043v49.073c0,3.688-2.994,6.683-6.684,6.683h-57.55c-3.693,0-6.682-2.995-6.682-6.683V9.885
		c0-3.693,2.989-6.683,6.682-6.683h26.841l0.865,3.831l5.943,4.446l0.249-0.053V26.39c0,3.694,2.988,6.683,6.682,6.683H77.96
		l3.857,5.521L85.458,41.043z"/>
	<path fill="#ED1A1A" d="M43.385,3.202v22.007h11.766v-14.92c0-3.693-2.989-7.086-6.683-7.086H43.385z"/>
	<path fill="#ED1A1A" d="M73.691,33.078v21.779h11.767V40.165c0-3.693-2.99-7.086-6.684-7.086H73.691z"/>
	<path fill="#ED1A1A" d="M83.325,33.09c0,0-1.881-2.086-5.2-2.173c-4.071-0.105-16.289,0-16.289,0s-4.458-0.686-4.515-5.829
		c0,0,0-10.768,0-14.345c0-1.791-1.161-4.275-3.431-6.288L83.325,33.09z"/>
	<g>
		<path fill="#FFFFFF" d="M26.027,73.022V55.194h8.928c4.009,0,6.201,2.7,6.201,5.934c0,3.208-2.192,5.907-6.201,5.907h-4.331v5.987
			H26.027z M36.479,61.128c0-1.229-0.909-1.925-2.139-1.925h-3.715v3.822h3.715C35.57,63.025,36.479,62.331,36.479,61.128z"/>
		<path fill="#FFFFFF" d="M43.214,73.022V55.194h7.485c5.614,0,9.649,3.368,9.649,8.9c0,5.533-4.035,8.928-9.623,8.928H43.214z
			 M55.644,64.095c0-2.753-1.657-4.892-4.919-4.892h-2.914v9.812h2.888C53.826,69.015,55.644,66.741,55.644,64.095z"/>
		<path fill="#FFFFFF" d="M62.647,73.022V55.194h13.07v4.009h-8.473v2.78h8.285v4.01h-8.285v7.029H62.647z"/>
	</g>
</g>
</svg>
