<?xml version="1.0" encoding="utf-8"?>
<!-- Generator: Adobe Illustrator 16.0.0, SVG Export Plug-In . SVG Version: 6.00 Build 0)  -->
<!DOCTYPE svg PUBLIC "-//W3C//DTD SVG 1.1//EN" "http://www.w3.org/Graphics/SVG/1.1/DTD/svg11.dtd">
<svg version="1.1" id="Layer_1" xmlns="http://www.w3.org/2000/svg" xmlns:xlink="http://www.w3.org/1999/xlink" x="0px" y="0px"
	 width="100px" height="100px" viewBox="0 0 100 100" enable-background="new 0 0 100 100" xml:space="preserve">
<g>
	<path fill="none" stroke="#EA6225" stroke-width="2.3" stroke-miterlimit="10" d="M44.917,65.707c0,0,4.621-0.561,5.673-5.346
		c1.053-4.783-1.832-6.922-2.545-7.701c-0.711-0.781-1.032-7.812,3.835-8.959c4.786-1.128,6.651,2.647,6.651,2.647
		s4.07,5.671,4.005,14.386c-0.063,8.451,2.714,14.441,1.579,24.533c-0.105,0.944-1.029,0.851-1.332,0.851s-18.834,0-18.834,0h-9.508
		c0,0-1.269-2.15,0.545-3.454c3.718-2.674,3.937-1.271,8.479-11.204C45.001,68.098,44.917,65.707,44.917,65.707z"/>
	<path fill="none" stroke="#EA6225" stroke-width="1.8" d="M81.857,18.47l10.235-4.591c0,0,2.361,0.594,3.513,2.774
		c1.15,2.18,1.199,3.776,1.199,3.776s0.135,1.613-0.107,1.735c-0.243,0.121-10.539,4.542-10.539,4.542s-1.688-1.325-2.785-0.969
		c-1.043,0.338-0.788,1.333-0.971,1.635c-0.182,0.302-1.393,0.727-1.694,0s-2.159,0.121-0.97,1.514
		c-0.35,0.763-1.313,1.489-2.422,1.453c-1.814-0.495-0.526-1.559-1.938-1.271c-1.399,0.474-1.09,1.453-0.787,2.059
		c0.304,0.605-9.569,4.179-9.569,4.179s-4.238-1.514-8.66,0.848c-4.42,2.362-7.75,3.937-11.021,9.266c0,0,0.68-4.394,3.149-6.904
		c0.749-0.76,4.289-3.141,4.289-3.141s4.736-2.892,6.248-5.035c1.63-2.308,12.046-7.207,12.046-7.207s0.019,1.341,1.763,1.393
		c0.387,0.011,1.385-0.49,1.212-1.877c-0.094-0.749,0.923-2.252,2.302-1.756c1.025,0.369,1.211,1.393,1.211,1.393
		s1.356-0.333,0.908-1.393c-0.441-1.042,0.58-1.25,0.969-1.09c0.56,0.231,0.424,1.514,0.97,1.393
		c0.545-0.121,0.907-0.182,0.907-0.969C81.313,19.439,81.857,18.47,81.857,18.47z"/>
	<path fill="#EA6225" d="M44.527,52.827l-0.523,5.872h-0.029c-0.135,0.57-0.668,0.959-1.24,0.871
		c-0.582-0.086-0.969-0.62-0.92-1.211h-0.039l1.667-5.735c0.116,0.01,0.233,0.019,0.349,0.039
		C44.042,52.701,44.294,52.76,44.527,52.827z"/>
	<path fill="#EA6225" d="M45.031,47.159l-0.504,5.668c-0.233-0.067-0.484-0.126-0.736-0.164c-0.116-0.021-0.233-0.029-0.349-0.039
		L45.031,47.159z"/>
	<path fill="none" stroke="#EA6225" stroke-width="1.5" stroke-miterlimit="10" d="M46.034,58.947
		c-0.267,1.729-1.887,2.917-3.617,2.65l0,0c-1.731-0.268-2.918-1.887-2.651-3.617l0,0c0.266-1.73,1.885-2.918,3.617-2.65l0,0
		C45.113,55.598,46.3,57.215,46.034,58.947L46.034,58.947z"/>
	<path fill="none" stroke="#000000" stroke-width="2.3" stroke-miterlimit="10" d="M39.729,54.957"/>
	<g>
		<path fill="#EA6225" d="M42.289,20.774l-0.185-0.175c-2.529-1.938-3.479-2.48-3.779-2.635c-0.465-0.262-3.604-1.89-6.667,0.009
			c-0.494,0.32-0.988,0.659-1.482,0.999c-1.841,1.27-3.585,2.471-5.999,2.471c-3.846,0-8.595-3.585-8.643-3.614l-0.174-0.116
			c-0.165-0.077-3.944-1.928-7.674,1.163c-2.452,2.035-5.495,7.393-4.234,12.471c1.201,4.893,3.207,11.541,4.553,14.244
			c0.863,1.725,0.543,8.683,0.136,12.664l-0.008,0.104l1.026,12.896c0.427,5.301,1.182,7.412,2.704,7.412
			c0.039,0,0.078,0,0.116-0.01c0.785-0.049,1.386-0.784,1.337-1.646c-0.174-2.267,1.541-11.803,2.199-15.224
			c0.204-0.745,2.026-7.313,5.407-8.584c3.13-1.183,5.271,0.087,5.407,0.165c0.029,0.02,3.537,2.111,5.882,10.027
			c2.413,8.179,1.714,13.054,1.705,13.09l-0.048,0.32l0.135,0.301c0.223,0.514,0.708,1.065,1.425,1.096
			c0.338,0.021,1.026-0.087,1.531-0.988c0.562-0.998,1.531-7.015,2.064-10.521l0.251-4.951c-0.804-0.872-1.269-2.035-1.269-3.268
			c0-0.252,0.019-0.502,0.058-0.754c0.174-1.145,0.727-2.133,1.521-2.859c-0.136-4.458-0.078-10.376,0.494-11.588
			c1.095-2.335,3.343-8.082,3.711-10.766C43.985,31.103,44.856,23.923,42.289,20.774z M41.581,32.198
			c-0.329,2.433-2.5,7.965-3.517,10.126c-0.95,2.006-0.804,9.65-0.697,12.8l-0.563,11.288c-0.232,1.561-0.494,3.188-0.747,4.66
			c-0.242-2.209-0.736-5-1.714-8.313c-2.635-8.903-6.764-11.239-6.87-11.298c-0.125-0.077-3.121-1.928-7.326-0.35
			c-4.234,1.59-6.269,8.141-6.802,10.185c-0.175,0.892-1.25,6.492-1.86,10.938c-0.029-0.357-0.068-0.735-0.098-1.152l-1.026-12.703
			c0.155-1.512,1.036-10.997-0.359-13.778c-1.231-2.471-3.197-8.943-4.38-13.789c-1.056-4.244,1.793-8.817,3.479-10.213
			c2.384-1.976,4.738-1.114,5.184-0.93c0.775,0.582,5.581,4.002,9.893,4.002c3.11,0,5.32-1.522,7.258-2.868
			c0.475-0.32,0.94-0.64,1.405-0.931c2.073-1.289,4.302-0.019,4.389,0.039l0.107,0.049c0.03,0.02,0.756,0.388,3.305,2.326
			C41.998,24.098,42.085,28.661,41.581,32.198z"/>
	</g>
</g>
</svg>
