<?xml version="1.0" encoding="utf-8"?>
<!-- Generator: Adobe Illustrator 16.0.0, SVG Export Plug-In . SVG Version: 6.00 Build 0)  -->
<!DOCTYPE svg PUBLIC "-//W3C//DTD SVG 1.1//EN" "http://www.w3.org/Graphics/SVG/1.1/DTD/svg11.dtd">
<svg version="1.1" id="Layer_1" xmlns="http://www.w3.org/2000/svg" xmlns:xlink="http://www.w3.org/1999/xlink" x="0px" y="0px"
	 width="100px" height="100px" viewBox="0 0 100 100" enable-background="new 0 0 100 100" xml:space="preserve">
<g>
	<g id="Group-3" transform="translate(0.000000, 9.630625)">
		<path id="Fill-1" fill="#FEFEFE" d="M8.827,17.348c-1.165,0-2.112,0.953-2.112,2.125v55.106c0,0.137,0.2,0.297,0.458,0.297h86.033
			c0.26,0,0.46-0.16,0.46-0.297V19.473c0-1.172-0.946-2.125-2.111-2.125H8.827z M93.207,77.878H7.174
			c-1.898,0-3.445-1.481-3.445-3.299V19.473c0-2.828,2.286-5.126,5.098-5.126h82.729c2.813,0,5.097,2.299,5.097,5.126v55.106
			C96.652,76.397,95.107,77.878,93.207,77.878L93.207,77.878z"/>
	</g>
	<path id="Fill-4" opacity="0.32" fill="#FEFEFE" enable-background="new    " d="M47.073,35.857c0,0,12.753,11.87,2.074,19.72
		c-6.661,4.896-6.577,11.038-6.577,11.038s0.253,5.887,6.759,10.498c2.618,1.857-13.904-3.71-15.502-7.028
		c-1.598-3.318-5.651-18.708-0.889-25.984C37.701,36.827,47.073,35.857,47.073,35.857"/>
	<path id="Fill-6" opacity="0.2" enable-background="new    " d="M50.487,72.104c0,0-2.359-3.119,0-5.49
		c2.36-2.371,7.324-2.771,7.573-7.313c0.247-4.541-1.118-5.289-0.869-9.282c0.248-3.993,5.459-9.788,5.459-9.788
		s2.991,1.647,3.581,3.043c9.108,12.079,1.688,25.463-0.251,27.147C55.261,78.946,50.487,72.104,50.487,72.104"/>
	<path id="Fill-8" fill="#FEFEFE" d="M50.376,37.358c-10.604,0-19.231,8.675-19.231,19.34c0,10.661,8.627,19.339,19.231,19.339
		c10.604,0,19.231-8.678,19.231-19.339C69.607,46.033,60.98,37.358,50.376,37.358 M50.376,79.037
		c-12.249,0-22.216-10.021-22.216-22.339c0-12.32,9.967-22.342,22.216-22.342s22.217,10.022,22.217,22.342
		C72.593,69.016,62.625,79.037,50.376,79.037"/>
	<polygon id="Fill-10" fill="#FEFEFE" points="30.17,24.409 38.155,15.632 62.086,15.632 70.057,24.627 	"/>
	<path id="Fill-12" fill="#FEFEFE" d="M33.595,22.902l33.062,0.18l-5.252-5.926H38.823L33.595,22.902z M70.058,26.151h-0.009
		l-39.885-0.216c-0.601-0.003-1.144-0.362-1.384-0.915c-0.239-0.552-0.134-1.196,0.271-1.64l7.983-8.778
		c0.288-0.317,0.692-0.496,1.12-0.496h23.933c0.432,0,0.845,0.186,1.132,0.51l7.97,8.997c0.398,0.449,0.499,1.093,0.251,1.642
		C71.194,25.802,70.653,26.151,70.058,26.151L70.058,26.151z"/>
	<path id="Fill-14" fill="#FEFEFE" d="M11.278,23.51h6.855v-3.234h-6.855V23.51z M18.663,26.513h-7.916
		c-1.354,0-2.454-1.108-2.454-2.47v-4.3c0-1.361,1.101-2.469,2.454-2.469h7.916c1.354,0,2.455,1.108,2.455,2.469v4.3
		C21.118,25.405,20.017,26.513,18.663,26.513L18.663,26.513z"/>
	<path id="Fill-16" fill="#FEFEFE" d="M59.463,68.398c-0.356,0-0.715-0.128-1.002-0.389c-0.61-0.557-0.656-1.505-0.103-2.12
		c2.425-2.692,3.661-6.174,3.481-9.803c-0.179-3.63-1.753-6.97-4.43-9.409c-0.611-0.557-0.658-1.505-0.106-2.121
		c0.555-0.616,1.497-0.661,2.109-0.105c3.27,2.977,5.19,7.055,5.41,11.486c0.217,4.428-1.295,8.68-4.254,11.968
		C60.275,68.232,59.87,68.398,59.463,68.398"/>
	<path id="Fill-17" fill="#FEFEFE" d="M20.923,36.459c0,2.083-1.679,3.773-3.752,3.773c-2.07,0-3.75-1.689-3.75-3.773
		c0-2.084,1.68-3.773,3.75-3.773C19.244,32.686,20.923,34.375,20.923,36.459"/>
</g>
</svg>
