<?xml version="1.0" encoding="utf-8"?>
<!-- Generator: Adobe Illustrator 16.0.0, SVG Export Plug-In . SVG Version: 6.00 Build 0)  -->
<!DOCTYPE svg PUBLIC "-//W3C//DTD SVG 1.1//EN" "http://www.w3.org/Graphics/SVG/1.1/DTD/svg11.dtd">
<svg version="1.1" id="Layer_1" xmlns="http://www.w3.org/2000/svg" xmlns:xlink="http://www.w3.org/1999/xlink" x="0px" y="0px"
	 width="100px" height="100px" viewBox="0 0 100 100" enable-background="new 0 0 100 100" xml:space="preserve">
<polyline fill="none" stroke="#FFFFFF" stroke-width="4" stroke-miterlimit="10" points="97.298,61.349 70.004,61.349 
	64.794,40.028 56.668,79.677 51.666,20.323 42.915,60.781 38.956,60.781 34.164,49.542 29.788,61.159 2.7,61.159 "/>
<path fill="#FFFFFF" d="M4.686,61.162c0,1.097-0.889,1.985-1.985,1.985l0,0c-1.096,0-1.985-0.889-1.985-1.985l0,0
	c0-1.097,0.889-1.985,1.985-1.985l0,0C3.796,59.177,4.686,60.065,4.686,61.162L4.686,61.162z"/>
<path fill="#FFFFFF" d="M99.27,61.355c0,1.103-0.883,1.997-1.972,1.997l0,0c-1.088,0-1.969-0.895-1.969-1.997l0,0
	c0-1.103,0.881-1.997,1.969-1.997l0,0C98.387,59.358,99.27,60.253,99.27,61.355L99.27,61.355z"/>
</svg>
