<?xml version="1.0" encoding="utf-8"?>
<!-- Generator: Adobe Illustrator 16.0.0, SVG Export Plug-In . SVG Version: 6.00 Build 0)  -->
<!DOCTYPE svg PUBLIC "-//W3C//DTD SVG 1.1//EN" "http://www.w3.org/Graphics/SVG/1.1/DTD/svg11.dtd">
<svg version="1.1" id="Layer_1" xmlns="http://www.w3.org/2000/svg" xmlns:xlink="http://www.w3.org/1999/xlink" x="0px" y="0px"
	 width="100px" height="100px" viewBox="0 0 100 100" enable-background="new 0 0 100 100" xml:space="preserve">
<g display="none">
	<path display="inline" fill="none" stroke="#FFFFFF" stroke-width="2.3" stroke-linecap="round" stroke-miterlimit="10" d="
		M85.189,73.912c0,0-10.496-11.948-23.445-11.948c-12.95,0-23.447,11.948-23.447,11.948S48.794,85.86,61.744,85.86
		C74.693,85.86,85.189,73.912,85.189,73.912z"/>
	
		<circle display="inline" fill="none" stroke="#FFFFFF" stroke-width="2.3" stroke-linecap="round" stroke-miterlimit="10" cx="61.743" cy="73.911" r="10.807"/>
	<circle display="inline" fill="#FFFFFF" cx="61.744" cy="73.912" r="4.834"/>
	<path display="inline" fill="none" stroke="#FFFFFF" stroke-width="2.3" stroke-miterlimit="10" d="M64.398,56.702V28.301
		l-13.75-13.75H18.731c-2.17,0-3.921,1.765-3.921,3.921v57.874c0,2.17,1.751,3.92,3.921,3.92h17.2"/>
	<path display="inline" fill="#FFFFFF" d="M65.453,28.493c0,2.166-1.756,3.921-3.922,3.921h-11c-2.166,0-3.922-1.755-3.922-3.921
		V14.14L65.453,28.493z"/>
	
		<line display="inline" fill="none" stroke="#FFFFFF" stroke-width="2.3" stroke-miterlimit="10" x1="23.737" y1="33.176" x2="40.836" y2="33.176"/>
	
		<line display="inline" fill="none" stroke="#FFFFFF" stroke-width="2.3" stroke-miterlimit="10" x1="23.737" y1="48.207" x2="53.799" y2="48.207"/>
	
		<line display="inline" fill="none" stroke="#FFFFFF" stroke-width="2.3" stroke-miterlimit="10" x1="23.737" y1="63.02" x2="42.143" y2="63.02"/>
	<polygon display="inline" fill="#FFFFFF" points="47.589,14.14 47.589,18.126 53.912,22.845 56.031,22.021 55.992,19.895 
		54.508,17.622 50.476,14.551 	"/>
</g>
<g>
	<path fill="none" stroke="#FFFFFF" stroke-width="2.3" d="M7.204,44.622c0,21.458,17.39,38.847,38.834,38.847
		c21.458,0,38.846-17.39,38.846-38.847"/>
	<path fill="none" stroke="#FFFFFF" stroke-width="2.2" stroke-miterlimit="10" d="M57.46,27.906
		c0,6.282-5.088,11.375-11.372,11.375l0,0c-6.281,0-11.373-5.092-11.373-11.375l0,0c0-6.279,5.092-11.374,11.373-11.374l0,0
		C52.372,16.532,57.46,21.627,57.46,27.906L57.46,27.906z"/>
	<path fill="none" stroke="#FFFFFF" stroke-width="2.2" stroke-miterlimit="10" d="M67.374,51.585v10.171H24.802V51.585
		c0-4.303,3.49-7.795,7.793-7.795h26.986C63.891,43.79,67.374,47.282,67.374,51.585z"/>
	<polyline fill="none" stroke="#FFFFFF" stroke-width="2.3" stroke-linecap="round" stroke-miterlimit="10" points="92.797,51.618 
		84.91,43.097 76.433,51.222 	"/>
</g>
</svg>
