<?xml version="1.0" encoding="utf-8"?>
<!-- Generator: Adobe Illustrator 13.0.0, SVG Export Plug-In . SVG Version: 6.00 Build 14948)  -->
<!DOCTYPE svg PUBLIC "-//W3C//DTD SVG 1.1//EN" "http://www.w3.org/Graphics/SVG/1.1/DTD/svg11.dtd">
<svg version="1.1" id="Layer_1" xmlns="http://www.w3.org/2000/svg" xmlns:xlink="http://www.w3.org/1999/xlink" x="0px" y="0px"
	 width="100px" height="100px" viewBox="0 0 100 100" enable-background="new 0 0 100 100" xml:space="preserve">
<path fill="#EA6225" d="M73.411,10.83V25.7h15.18L73.411,10.83z M35.161,10.5v4.93H62.38l8.951,8.95V10.5H35.161z M61.29,17.33V32.7
	H76.3v-0.11L61.29,17.33z M35.161,17.16v0.14H23.38v4.99h27.181l8.649,8.649V17.16H35.161z M59.271,34.16H59.21V34.1L49.3,24.02
	h-0.049v15.44H64.48L59.271,34.16z M76.3,75.839V34.93H63.2l3.25,3.25v5.02h5.291v3.3H66.45v5.229h5.291v3.301H66.45v5.31h5.291
	v3.312H66.45v5.471h5.291v3.299H66.45V82.7H76.6v-6.82L76.3,75.839z M47.181,41.54V24.02H23.38v0.15H11.37V89.5h53.062v-6.801h0.049
	V41.54H47.181z M16.41,32.51h25.96v3.79H16.41V32.51z M16.41,41.13h25.96v3.79H16.41V41.13z M59.359,79.37H16.41v-3.791h42.949
	V79.37z M59.359,71.1H16.41v-3.789h42.949V71.1z M59.359,62.259H16.41v-3.788h42.949V62.259z M59.359,53.3H16.41v-3.79h42.949V53.3z
	 M59.271,34.16H59.21V34.1L49.3,24.02h-0.049v15.44H64.48L59.271,34.16z M74.88,27.93l3.392,3.39v5.03h5.539v3.311h-5.539v5.189
	h5.539v3.3h-5.539v5.23h5.539v3.3h-5.539v5.311h5.539v3.31h-5.539v10.13H88.63v-47.5H74.88z M61.29,17.33V32.7H76.3v-0.11
	L61.29,17.33z"/>
<g display="none">
	<path display="inline" fill="#FFFFFF" d="M50.105,26.425c-22.79,0-47.181,10.39-47.181,23.58c0,11.789,26.82,23.57,46.97,23.57
		c22.79,0,47.181-10.392,47.181-23.57C97.075,38.215,70.255,26.425,50.105,26.425z M49.995,70.645c-11.4,0-20.64-9.238-20.64-20.64
		c0-11.401,9.239-20.65,20.64-20.65c11.409,0,20.649,9.25,20.649,20.65C70.645,61.404,61.404,70.645,49.995,70.645z"/>
	<circle display="inline" fill="#FFFFFF" cx="50" cy="50" r="7.042"/>
</g>
<g display="none">
	<circle display="inline" fill="none" stroke="#FFFFFF" stroke-width="3" stroke-miterlimit="10" cx="50" cy="50" r="33.963"/>
	<path display="inline" fill="none" stroke="#FFFFFF" stroke-width="1.5" stroke-miterlimit="10" d="M37.63,29.189
		c1.326,0,2.402,1.075,2.402,2.401v3.783c0,1.326-1.076,2.402-2.402,2.402l0,0c-1.325,0-2.401-1.076-2.401-2.402V31.59
		C35.229,30.264,36.305,29.189,37.63,29.189L37.63,29.189z"/>
	<path display="inline" fill="none" stroke="#FFFFFF" stroke-width="1.5" stroke-miterlimit="10" d="M62.631,29.189
		c1.326,0,2.4,1.075,2.4,2.401v3.783c0,1.326-1.074,2.402-2.4,2.402l0,0c-1.326,0-2.402-1.076-2.402-2.402V31.59
		C60.229,30.264,61.305,29.189,62.631,29.189L62.631,29.189z"/>
	<path display="inline" fill="#FFFFFF" d="M69.549,32.483h-2.83v3.02c0,2.25-1.83,4.08-4.09,4.08c-1.131,0-2.15-0.46-2.881-1.2
		c-0.74-0.74-1.199-1.76-1.199-2.88v-3.02h-16.83v3.02c0,2.25-1.83,4.08-4.09,4.08c-1.13,0-2.15-0.46-2.88-1.2
		c-0.74-0.74-1.2-1.76-1.2-2.88v-3.02h-3.33c-1.66,0-3,1.34-3,3v34.399c0,1.66,1.34,3,3,3h39.33c1.65,0,3-1.34,3-3V35.483
		C72.549,33.823,71.199,32.483,69.549,32.483z M71.039,68.354c0,1.66-1.35,3-3,3h-36.11c-1.66,0-3-1.34-3-3V44.403
		c0-1.649,1.34-3,3-3h36.11c1.65,0,3,1.351,3,3V68.354z"/>
	<path display="inline" fill="#FFFFFF" d="M55.238,50.275c0,0.552-0.447,1-1,1h-8.387c-0.552,0-1-0.449-1-1v-4.397
		c0-0.553,0.448-1,1-1h8.387c0.553,0,1,0.447,1,1V50.275z"/>
	<path display="inline" fill="#FFFFFF" d="M67.824,50.275c0,0.552-0.447,1-1,1h-8.389c-0.552,0-1-0.449-1-1v-4.397
		c0-0.553,0.448-1,1-1h8.389c0.553,0,1,0.447,1,1V50.275z"/>
	<path display="inline" fill="#FFFFFF" d="M67.824,58.541c0,0.553-0.447,1-1,1h-8.389c-0.552,0-1-0.447-1-1v-4.398
		c0-0.551,0.448-1,1-1h8.389c0.553,0,1,0.449,1,1V58.541z"/>
	<path display="inline" fill="#FFFFFF" d="M42.825,58.541c0,0.553-0.448,1-1,1h-8.388c-0.552,0-1-0.447-1-1v-4.398
		c0-0.551,0.448-1,1-1h8.388c0.552,0,1,0.449,1,1V58.541z"/>
	<g display="inline">
		<path fill="#FFFFFF" d="M54.238,54.143v4.398h-8.387v-4.398H54.238 M54.238,53.143h-8.387c-0.552,0-1,0.449-1,1v4.398
			c0,0.553,0.448,1,1,1h8.387c0.553,0,1-0.447,1-1v-4.398C55.238,53.592,54.791,53.143,54.238,53.143L54.238,53.143z"/>
	</g>
	<path display="inline" fill="#FFFFFF" d="M55.238,67.219c0,0.553-0.447,1-1,1h-8.387c-0.552,0-1-0.447-1-1V62.82
		c0-0.551,0.448-1,1-1h8.387c0.553,0,1,0.449,1,1V67.219z"/>
	<path display="inline" fill="#FFFFFF" d="M42.825,67.219c0,0.553-0.448,1-1,1h-8.388c-0.552,0-1-0.447-1-1V62.82
		c0-0.551,0.448-1,1-1h8.388c0.552,0,1,0.449,1,1V67.219z"/>
</g>
</svg>
