<?xml version="1.0" encoding="utf-8"?>
<!-- Generator: Adobe Illustrator 16.0.0, SVG Export Plug-In . SVG Version: 6.00 Build 0)  -->
<!DOCTYPE svg PUBLIC "-//W3C//DTD SVG 1.1//EN" "http://www.w3.org/Graphics/SVG/1.1/DTD/svg11.dtd">
<svg version="1.1" id="Layer_1" xmlns="http://www.w3.org/2000/svg" xmlns:xlink="http://www.w3.org/1999/xlink" x="0px" y="0px"
	 width="100px" height="100px" viewBox="0 0 100 100" enable-background="new 0 0 100 100" xml:space="preserve">
<g>
	<path fill="#FFFFFF" d="M42.481,82.985c-7.033,7.032-18.433,7.032-25.466,0l0,0c-7.031-7.034-7.031-18.434,0-25.467l40.504-40.504
		c7.032-7.032,18.434-7.032,25.467,0l0,0c7.031,7.033,7.031,18.434,0,25.467L42.481,82.985z"/>
	<path fill="#777777" d="M38.593,38.364l19.974-19.973c6.362-6.364,16.677-6.364,23.04,0l0,0c6.364,6.364,6.364,16.679,0,23.043
		L61.635,61.407"/>
	
		<rect x="63.969" y="28.074" transform="matrix(0.7072 0.707 -0.707 0.7072 43.6396 -36.0407)" fill="#FFFFFF" width="2.727" height="13.186"/>
	
		<rect x="63.968" y="28.074" transform="matrix(0.707 -0.7072 0.7072 0.707 -5.3754 56.3595)" fill="#FFFFFF" width="2.728" height="13.187"/>
</g>
</svg>
