<?xml version="1.0" encoding="utf-8"?>
<!-- Generator: Adobe Illustrator 16.0.0, SVG Export Plug-In . SVG Version: 6.00 Build 0)  -->
<!DOCTYPE svg PUBLIC "-//W3C//DTD SVG 1.1//EN" "http://www.w3.org/Graphics/SVG/1.1/DTD/svg11.dtd">
<svg version="1.1" id="Layer_1" xmlns="http://www.w3.org/2000/svg" xmlns:xlink="http://www.w3.org/1999/xlink" x="0px" y="0px"
	 width="100px" height="100px" viewBox="0 0 100 100" enable-background="new 0 0 100 100" xml:space="preserve">
<image display="none" overflow="visible" width="225" height="225" xlink:href="download (1).png"  transform="matrix(0.3956 0 0 0.3956 5.5 5.5)">
</image>
<path fill="none" stroke="#FFFFFF" stroke-width="6" stroke-linecap="round" stroke-miterlimit="10" d="M91.67,51.17v23.99
	c0,6.21-5.03,11.24-11.24,11.24H19.57c-6.21,0-11.24-5.03-11.24-11.24V30.84c0-6.21,5.03-11.24,11.24-11.24h34.264"/>
<path fill="none" stroke="#FFFFFF" stroke-width="6" stroke-linecap="round" stroke-miterlimit="10" d="M33,61.833
	c10-23,32-35.5,54.167-35.5"/>
<polyline fill="none" stroke="#FFFFFF" stroke-width="6" stroke-linecap="round" stroke-linejoin="round" stroke-miterlimit="10" points="
	75.063,13.868 91.509,24.032 92.926,24.908 81.272,43.765 "/>
</svg>
