<?xml version="1.0" encoding="utf-8"?>
<!-- Generator: Adobe Illustrator 13.0.0, SVG Export Plug-In . SVG Version: 6.00 Build 14948)  -->
<!DOCTYPE svg PUBLIC "-//W3C//DTD SVG 1.1//EN" "http://www.w3.org/Graphics/SVG/1.1/DTD/svg11.dtd">
<svg version="1.1" id="Layer_1" xmlns="http://www.w3.org/2000/svg" xmlns:xlink="http://www.w3.org/1999/xlink" x="0px" y="0px"
	 width="100px" height="100px" viewBox="0 0 100 100" enable-background="new 0 0 100 100" xml:space="preserve">
<g>
	<g>
		<g>
			<path fill="#EA6225" d="M19.978,71.531c0-3.947,0-50.168,0-54.119c3.909,0,45.607,0,49.516,0c0,1.397,0,8.086,0,16.309
				c0.955-0.176,1.938-0.296,2.941-0.296c0.516,0,1.002,0.106,1.51,0.152V12.971H15.53v63.001h36.738v-4.44
				C38.898,71.531,22.37,71.531,19.978,71.531z"/>
			<path fill="#EA6225" d="M26.304,46.798h30.172c0.297-1.661,0.883-3.207,1.65-4.652H26.304V46.798z"/>
			<rect x="26.304" y="27.597" fill="#EA6225" width="36.857" height="4.653"/>
			<path fill="#EA6225" d="M26.304,61.35h31.28c0.837-0.507,1.729-0.92,2.686-1.175c-0.906-1.054-1.65-2.239-2.287-3.478H26.304
				V61.35z"/>
			<path fill="#EA6225" d="M72.439,61.814c6.717,0,12.129-5.428,12.129-12.124c0-6.703-5.412-12.129-12.129-12.129
				c-6.688,0-12.104,5.426-12.104,12.129C60.336,56.389,65.751,61.814,72.439,61.814z"/>
			<path fill="#EA6225" d="M82.172,63.785H62.734c-3.471,0-6.314,3.182-6.314,7.101v19.517c0,0.216,0.1,0.406,0.112,0.628h31.823
				c0.016-0.22,0.113-0.412,0.113-0.628V70.886C88.484,66.979,85.646,63.785,82.172,63.785z"/>
		</g>
	</g>
</g>
</svg>
