<?xml version="1.0" encoding="utf-8"?>
<!-- Generator: Adobe Illustrator 16.0.0, SVG Export Plug-In . SVG Version: 6.00 Build 0)  -->
<!DOCTYPE svg PUBLIC "-//W3C//DTD SVG 1.1//EN" "http://www.w3.org/Graphics/SVG/1.1/DTD/svg11.dtd">
<svg version="1.1" id="Layer_1" xmlns="http://www.w3.org/2000/svg" xmlns:xlink="http://www.w3.org/1999/xlink" x="0px" y="0px"
	 width="100px" height="100px" viewBox="0 0 100 100" enable-background="new 0 0 100 100" xml:space="preserve">
<g>
	<circle fill="none" stroke="#FFFFFF" stroke-width="2.3" stroke-miterlimit="10" cx="50" cy="50" r="37.25"/>
	<path fill="#FFFFFF" d="M35.296,20.52c-10.742,5.382-18.123,16.505-18.123,29.343c0,0.413,0.012,0.825,0.032,1.238l23.312-1.216
		c0-0.012,0-0.012,0-0.022c0-3.754,2.17-6.999,5.327-8.54L35.296,20.52z M55.21,57.796c-1.498,0.988-3.279,1.563-5.21,1.563
		c-1.529,0-2.973-0.358-4.243-0.998L32.561,77.666C37.618,80.855,43.598,82.69,50,82.69c6.685,0,12.893-1.997,18.068-5.427
		L55.21,57.796z M65.584,20.965L55.025,41.702l-0.043,0.087c2.701,1.671,4.503,4.666,4.503,8.073v0.033l23.311,1.227
		c0.021-0.413,0.031-0.836,0.031-1.26C82.827,37.372,75.85,26.51,65.584,20.965z"/>
	<path opacity="0.3" fill="#FFFFFF" d="M56.625,50c0,3.66-2.97,6.63-6.63,6.63s-6.62-2.97-6.62-6.63s2.96-6.63,6.62-6.63
		S56.625,46.34,56.625,50z"/>
	<path opacity="0.6" d="M54.625,50c0,2.56-2.069,4.63-4.63,4.63c-2.56,0-4.62-2.07-4.62-4.63c0-2.561,2.061-4.63,4.62-4.63
		C52.556,45.37,54.625,47.439,54.625,50z"/>
	<path fill="#FFFFFF" d="M55.978,49.862c0,3.31-2.675,5.984-5.984,5.984c-3.309,0-5.972-2.675-5.972-5.984
		c0-3.308,2.663-5.982,5.972-5.982C53.303,43.88,55.978,46.555,55.978,49.862z"/>
</g>
</svg>
