<?xml version="1.0" encoding="utf-8"?>
<!-- Generator: Adobe Illustrator 16.0.0, SVG Export Plug-In . SVG Version: 6.00 Build 0)  -->
<!DOCTYPE svg PUBLIC "-//W3C//DTD SVG 1.1//EN" "http://www.w3.org/Graphics/SVG/1.1/DTD/svg11.dtd">
<svg version="1.1" id="Layer_1" xmlns:sketch="http://www.bohemiancoding.com/sketch/ns"
	 xmlns="http://www.w3.org/2000/svg" xmlns:xlink="http://www.w3.org/1999/xlink" x="0px" y="0px" width="32px" height="32px"
	 viewBox="0 0 32 32" enable-background="new 0 0 32 32" xml:space="preserve">
<title></title>
<desc></desc>
<g id="Page-1">
	<g id="icon-109-document-zip">
		<path id="document-zip" fill="#929292" d="M13,18.05V17h-1v-1h1v-1h-1v-1h1v-1h-1v-1h1v-1h-1v-1h1V9h-1V8h1V7h-1V6h1V5h-1V4H8.996
			C8.446,4,8,4.455,8,4.996v23.008C8,28.555,8.455,29,9,29h15c0.553,0,1-0.445,1-0.993V11h-4.002C19.895,11,19,10.113,19,8.994V4h-5
			l0,0v1h1v1h-1v1h1v1h-1v1h1v1h-1v1h1v1h-1v1h1v1h-1v1h1v1h-1v1v1.049c1.147,0.231,2,1.24,2,2.451c0,1.391-1.119,2.5-2.5,2.5
			c-1.39,0-2.5-1.119-2.5-2.5C11,19.282,11.859,18.279,13,18.05L13,18.05L13,18.05z M26,10v18.01c0,1.092-0.895,1.99-1.998,1.99
			H8.998C7.891,30,7,29.102,7,27.992V5.007C7,3.898,7.896,3,9.003,3H20L26,10L26,10L26,10z M20,4.5v4.491
			C20,9.548,20.451,10,20.996,10H24.7L20,4.5L20,4.5z M13.5,19c-0.829,0-1.5,0.666-1.5,1.5c0,0.828,0.666,1.5,1.5,1.5
			c0.829,0,1.5-0.666,1.5-1.5C15,19.672,14.334,19,13.5,19L13.5,19z"/>
	</g>
</g>
<path fill="#929292" d="M22.792,24.605c0,0.245-0.199,0.444-0.444,0.444h-4.966c-0.245,0-0.444-0.199-0.444-0.444l0,0
	c0-0.246,0.199-0.445,0.444-0.445h4.966C22.593,24.16,22.792,24.359,22.792,24.605L22.792,24.605z"/>
<path fill="#929292" d="M19.855,27.532c-0.245-0.001-0.444-0.201-0.443-0.446l0.016-4.965c0-0.246,0.2-0.444,0.445-0.443l0,0
	c0.246,0.001,0.445,0.201,0.444,0.446l-0.016,4.965C20.302,27.335,20.102,27.533,19.855,27.532L19.855,27.532z"/>
</svg>
